Name,Sex,Division,Equipment,WeightClassKg,BodyweightKg,Best3SquatKg,Best3BenchKg,Best3DeadliftKg,TotalKg,Place,Event,State
Stefan Müller,M,Open,Raw,105,96.16,120,100,145,365,10,SBD,NW
Jerome Vego,M,Open,Raw,120,112,140,100,170,410,5,SBD,NW
Kim Müller,M,Open,Raw,74,72.65,142.5,115,162.5,420,3,SBD,NW
Daniel Mattern,M,Open,Raw,93,90.1,155,100,180,435,6,SBD,NW
Simon Terhorst,M,Open,Raw,105,101.15,140,115,180,435,9,SBD,NW
Tobias Ommer,M,Open,Raw,83,80.25,160,105,205,470,6,SBD,NW
Thomas Glanz,M,Open,Raw,83,82.3,170,102.5,207.5,480,4,SBD,NW
Wilhelm Biniok,M,Open,Raw,83,83,145,120,215,480,5,SBD,NW
Maher Saei,M,Open,Raw,74,71.35,160,130,210,500,2,SBD,NW
Simon Gelewski,M,Open,Raw,120,110.45,190,110,215,515,3,SBD,NW
Marvin Boms,M,Open,Raw,105,95.85,175,120,225,520,8,SBD,NW
Dimitry Sidorov,M,Open,Raw,83,82.05,187.5,127.5,210,525,3,SBD,NW
Philippe Anghuy,M,Open,Raw,105,98.7,200,110,230,540,6,SBD,NW
Günter Barth,M,Open,Raw,83,80.5,195,135,220,550,2,SBD,NW
David Littau,M,Open,Raw,93,90.4,215,132.5,262.5,610,3,SBD,NW
Faisal Yassin,M,Open,Raw,105,99.55,220,152.5,242.5,615,5,SBD,NW
Ken Gildner,M,Open,Raw,93,90.75,212.5,147.5,260,620,2,SBD,NW
Rustam Pitov,M,Open,Raw,105,101.7,205,177.5,242.5,625,3,SBD,NW
Sebastian Schaffarczyk,M,Open,Raw,105,103.3,220,165,240,625,4,SBD,NW
Paul Markwart,M,Open,Raw,83,81.8,215,152.5,267.5,635,1,SBD,NW
Timo Lieder,M,Open,Raw,105,103.7,245,170,260,675,2,SBD,NW
Friedrich von Hennig,M,Open,Raw,105,98.95,240,157.5,302.5,700,1,SBD,NW
Anna Seleninova,F,Open,Raw,63,60.5,50,30,75,155,4,SBD,NW
Rebekka Roch,F,Open,Raw,57,55.1,55,40,82.5,177.5,3,SBD,NW
Susanne Wischnewski,F,Masters 3,Single-ply,63,59.3,70,40,82.5,192.5,1,SBD,NW
Verena Fischer,F,Open,Raw,57,55.65,80,42.5,100,222.5,2,SBD,NW
Linda Streicher,F,Open,Raw,72,71,82.5,47.5,110,240,4,SBD,NW
Bärbel Pfeifer,F,Masters 1,Raw,84+,116.25,70,57.5,115,242.5,1,SBD,NW
Stefanie Dittombee,F,Open,Raw,63,59.85,90,50,105,245,3,SBD,NW
Ira Neitzel,F,Open,Raw,52,49.7,95,50,102.5,247.5,1,SBD,NW
Karolina Gerferz,F,Open,Raw,63,62.1,85,50,112.5,247.5,2,SBD,NW
Amelie Kraft,F,Open,Raw,63,62,85,55,117.5,257.5,1,SBD,NW
Janina Fölsche,F,Juniors,Raw,63,62.75,100,52.5,122.5,275,1,SBD,NW
Dina Pohl,F,Open,Raw,72,70.15,107.5,52.5,117.5,277.5,3,SBD,NW
Hanna Wang,F,Open,Raw,57,54.4,95,60,130,285,1,SBD,NW
Anna Belke,F,Juniors,Raw,72,68.6,110,60,120,290,1,SBD,NW
Karen Rehfus,F,Open,Single-ply,72,72,110,65,125,300,1,SBD,NW
Marlies Winkel,F,Masters 3,Raw,63,62.35,95,70,135,300,1,SBD,NW
Nadine Bisior,F,Open,Raw,72,70.6,107.5,62.5,130,300,2,SBD,NW
Lea Holighaus,F,Open,Single-ply,63,62.5,122.5,55,137.5,315,2,SBD,NW
Tetyana Holm,F,Open,Raw,72,71.7,127.5,67.5,130,325,1,SBD,NW
Rebekka Thomas,F,Open,Raw,84,77.5,120,67.5,140,327.5,1,SBD,NW
Onur Fakiroglu,M,Open,Raw,74,73.05,100,92.5,135,327.5,4,SBD,NW
Lea Schreiner,F,Juniors,Raw,84,81.95,125,72.5,150,347.5,1,SBD,NW
Jessica Lang,F,Open,Single-ply,63,60.9,150,70,142.5,362.5,1,SBD,NW
Johnny Winkler,M,Juniors,Raw,83,81.8,120,82.5,185,387.5,6,SBD,NW
Holger Ippers,M,Masters 2,Raw,83,77.65,110,117.5,170,397.5,2,SBD,NW
Michael Fauck,M,Masters 1,Raw,74,72.05,135,122.5,142.5,400,1,SBD,NW
Alexander Hammers,M,Juniors,Raw,83,82.6,150,95,160,405,5,SBD,NW
Mariana Moreno Cederberg,F,Open,Raw,84+,90.3,150,87.5,170,407.5,1,SBD,NW
Tom Burg,M,Juniors,Raw,74,71.45,135,97.5,180,412.5,1,SBD,NW
Jan Smolczyk,M,Masters 1,Single-ply,74,72.25,135,105,180,420,1,SBD,NW
Marco Schürmann,M,Juniors,Raw,93,88.4,130,107.5,185,422.5,6,SBD,NW
Klaus Uwe Klobedantz,M,Masters 2,Raw,120,105.8,155,110,175,440,2,SBD,NW
Stefan Kapplinghaus,M,Masters 3,Raw,105,103.05,137.5,115,190,442.5,1,SBD,NW
Christian Stoebke,M,Masters 1,Raw,120,109.2,150,102.5,192.5,445,2,SBD,NW
David Cordes,M,Juniors,Raw,93,92,165,90,200,455,5,SBD,NW
Wlad Pesotsky,M,Youth,Raw,83,79.55,165,110,185,460,1,SBD,NW
Benno Dressler,M,Open,Raw,93,88.35,155,122.5,190,467.5,5,SBD,NW
Philipp Ebeling,M,Juniors,Raw,93,88.05,190,105,175,470,4,SBD,NW
Jonas Diefenbach,M,Juniors,Single-ply,74,68.8,190,85,200,475,1,SBD,NW
Martin Verhoff,M,Masters 2,Raw,105,94.5,160,120,200,480,1,SBD,NW
Sebastian Schwarz,M,Juniors,Raw,83,80.05,165,120,202.5,487.5,4,SBD,NW
Dirk Riedel,M,Masters 2,Raw,83,81.05,155,110,222.5,487.5,1,SBD,NW
Elio Taurisano,M,Masters 2,Raw,93,93,172.5,117.5,210,500,2,SBD,NW
Thomas Roch,M,Masters 2,Raw,120,111.15,140,150,210,500,1,SBD,NW
Jonas Gailus,M,Juniors,Raw,105,97.55,187.5,105,212.5,505,3,SBD,NW
Semih Ugur,M,Juniors,Raw,83,81.15,195,112.5,205,512.5,3,SBD,NW
Philipp Oszczeda,M,Open,Raw,120,116.95,195,127.5,190,512.5,4,SBD,NW
Andreas Werthenbach,M,Juniors,Single-ply,83,79.9,180,120,215,515,2,SBD,NW
Martin Tetzlaff,M,Masters 1,Raw,120,116.9,165,177.5,180,522.5,1,SBD,NW
Jan Hendrik Becker,M,Open,Raw,105,103.3,190,120,212.5,522.5,7,SBD,NW
Omar Kerknawi,M,Juniors,Raw,83,81.8,175,122.5,230,527.5,2,SBD,NW
Mehrjar Yahyavi Sarab,M,Youth,Raw,105,95.15,180,125,227.5,532.5,1,SBD,NW
Jochen Stöver,M,Masters 2,Raw,93,90.4,185,122.5,225,532.5,1,SBD,NW
Marc Müller,M,Open,Raw,93,90.75,192.5,115,225,532.5,4,SBD,NW
Daniel Höcker,M,Juniors,Raw,83,81.2,185,125,225,535,1,SBD,NW
Jasper Steffens,M,Juniors,Raw,120,109.35,187.5,110,240,537.5,2,SBD,NW
Saadi Zierl,M,Open,Raw,74,73.9,187.5,130,220,537.5,1,SBD,NW
Felix Otte,M,Juniors,Raw,105,94.95,200,112.5,230,542.5,2,SBD,NW
Gordon Jasper,M,Juniors,Raw,105,94.05,197.5,135,220,552.5,1,SBD,NW
Constantin Thase,M,Juniors,Raw,93,91.15,200,125,230,555,3,SBD,NW
Silas Geiß,M,Juniors,Single-ply,83,76.65,220,125,220,565,1,SBD,NW
Jan Tenbusch,M,Open,Raw,120+,120.5,220,107.5,240,567.5,2,SBD,NW
Jan Rosenkranz,M,Open,Single-ply,93,85,192.5,137.5,240,570,2,SBD,NW
Moritz Johnen,M,Juniors,Raw,93,90.2,210,137.5,222.5,570,2,SBD,NW
Christopher Lisberg,M,Open,Raw,120,118.1,175,155,242.5,572.5,2,SBD,NW
Jörg Kasparek,M,Masters 1,Raw,105,97.7,195,145,235,575,1,SBD,NW
Philipp Quenzel,M,Juniors,Raw,93,90.65,215,142.5,252.5,610,1,SBD,NW
Vadim Helmel,M,Open,Single-ply,83,76.65,250,145,235,630,1,SBD,NW
Matthias Weinand,M,Open,Single-ply,93,91.95,250,137.5,252.5,640,1,SBD,NW
Andreas Pohl,M,Open,Raw,120+,136.35,217.5,170,270,657.5,1,SBD,NW
Felix Kappmeyer,M,Juniors,Raw,120,106.85,220,167.5,280,667.5,1,SBD,NW
Stefan Rzehak,M,Open,Raw,120,111.95,260,160,267.5,687.5,1,SBD,NW
Rudolf Maier,M,Masters 1,Single-ply,105,99,265,190,250,705,1,SBD,NW
Kevin Boateng,M,Open,Raw,93,91.35,250,160,302.5,712.5,1,SBD,NW
Anton Elzer,M,Masters 1,Single-ply,120,120,300,190,260,750,1,SBD,NW
Yaşar Küçük,M,Masters 1,Raw,120+,153.5,280,190,280,750,1,SBD,NW
Viktor Beilmann,M,Juniors,Single-ply,83,77.05,315,165,285,765,G,SBD,NW
