Place,Sex,Name,Event,Division,WeightClassKg,Equipment,State,BodyweightKg,Squat1Kg,Squat2Kg,Squat3Kg,Best3SquatKg,Bench1Kg,Bench2Kg,Bench3Kg,Best3BenchKg,Deadlift1Kg,Deadlift2Kg,Deadlift3Kg,Best3DeadliftKg,TotalKg,BirthYear
1,M,Jon Kennedy,B,M1,120+,Single-ply,FL,144.6,,,,,162.5,207.5,-215,207.5,,,,,207.5,1973
2,M,Jon Kennedy,B,M1,120+,Single-ply,FL,144.6,,,,,162.5,207.5,-215,207.5,,,,,207.5,1973
1,M,Shawn Knapp,B,R-M1,74,Raw,FL,72.3,,,,,102.5,110,115,115.0,,,,,115,1966
1,M,Scott Danberg,B,R-M2,59,Raw,FL,58.6,,,,,100,107.5,115,115.0,,,,,115,1962
1,M,Brian Hart,B,R-M3,93,Raw,FL,88.7,,,,,152.5,-160,160,160.0,,,,,160,1956
2,M,Thomas Fleischmann,B,R-M3,93,Raw,FL,91,,,,,92.5,102.5,112.5,112.5,,,,,112.5,1953
1,M,Shawn Knapp,B,R-O,74,Raw,FL,72.3,,,,,102.5,110,115,115.0,,,,,115,1966
2,M,Brayden Walker #1,B,R-O,74,Raw,FL,71.8,,,,,67.5,72.5,75,75.0,,,,,75,2004
1,M,Brian Hart,B,R-O,93,Raw,FL,88.7,,,,,152.5,-160,160,160.0,,,,,160,1956
1,M,Brayden Walker #1,B,R-Y1,74,Raw,FL,71.8,,,,,67.5,72.5,75,75.0,,,,,75,2004
1,F,Cheryl Naso,B,R-M2,63,Raw,FL,58.9,,,,,60.5,62.5,65,65.0,,,,,65,1962
2,F,JoAnne Friedman,B,R-M2,63,Raw,FL,61.9,,,,,45,50,-55,50.0,,,,,50,1965
1,M,David Silverbloom,D,R-M2,120+,Raw,FL,125.6,,,,,,,,,257.5,267.5,-275,267.5,267.5,1960
1,F,Michele Cannella,D,R-M2,63,Raw,FL,57.2,,,,,,,,,100,105,110,110.0,110,1959
2,F,Robyn Mohr,D,R-M2,63,Raw,FL,58,,,,,,,,,92.5,100,107.5,107.5,107.5,1966
1,M,Jon Kennedy,SBD,M1,120+,Single-ply,FL,144.6,197.5,252.5,-260,252.5,162.5,207.5,-215,207.5,185,-240,-240,185.0,645,1973
1,M,Steven Ritucci Jr,SBD,O,83,Single-ply,FL,80,195,210,220,220.0,175,180,190,190.0,-230,230,-250,230.0,640,1978
1,M,Elliot Flignor,SBD,O,105,Single-ply,FL,94.9,170,-177.5,-177.5,170.0,115,-122.5,-122.5,115.0,195,-210,-210,195.0,480,1992
1,M,Corey Lieb,SBD,R-C,59,Raw,FL,58.1,95,105,-112.5,105.0,97.5,100,-102.5,100.0,125,130,137.5,137.5,342.5,1995
1,M,Philip Tomeo,SBD,R-C,74,Raw,NJ,71.7,125,135,147.5,147.5,95,-102.5,102.5,102.5,177.5,192.5,-212.5,192.5,442.5,1995
DQ,M,Calvin Le,SBD,R-C,74,Raw,FL,73.5,112.5,120,-125,120.0,-75,-87.5,-87.5,,150,155,-162.5,155.0,,1997
1,M,Nick Olson,SBD,R-C,83,Raw,FL,81.7,-165,165,175,175.0,125,-130,132.5,132.5,165,172.5,185,185.0,492.5,1994
1,M,Jason Sickels,SBD,R-C,105,Raw,FL,99.3,185,195,207.5,207.5,145,-150,-152.5,145.0,185,195,210,210.0,562.5,1997
1,M,Michael Izzolo,SBD,R-JR,74,Raw,FL,73.5,145,155,160,160.0,95,102.5,105,105.0,200,-210,-210,200.0,465,1993
1,M,Keegan Laud,SBD,R-JR,83,Raw,FL,82.6,220,232.5,243,243.0,142.5,155,157.5,157.5,265,280,-297.5,280.0,680.5,1995
2,M,Chris Severino,SBD,R-JR,83,Raw,FL,77.6,-175,175,187.5,187.5,115,125,-130,125.0,227.5,250,-257.5,250.0,562.5,1994
1,M,Rene Jimenez,SBD,R-JR,93,Raw,FL,90.4,172.5,185,-195,185.0,-127.5,127.5,-142.5,127.5,185,200,212.5,212.5,525,1995
1,M,Brian Tiderman,SBD,R-JR,105,Raw,NC,104.6,255,267.5,272.5,272.5,177.5,182.5,-187.5,182.5,257.5,267.5,272.5,272.5,727.5,1996
2,M,Lee Parker,SBD,R-JR,105,Raw,FL,102.3,190,200,-210,200.0,-105,110,122.5,122.5,200,225,235,235.0,557.5,1995
3,M,Lee Parker,SBD,R-JR,105,Raw,FL,102.3,190,200,-210,200.0,-105,110,122.5,122.5,200,225,235,235.0,557.5,1995
4,M,Joshua Hayes-Boursiquot,SBD,R-JR,105,Raw,FL,98.6,-147.5,147.5,162.5,162.5,-117.5,120,145,145.0,172.5,180,230,230.0,537.5,1996
1,M,David Mihan,SBD,R-JR,120,Raw,GA,112.4,160,187.5,192.5,192.5,-120,122.5,142.5,142.5,200,210,227.5,227.5,562.5,1995
1,M,Joe Woelfel,SBD,R-M1,74,Raw,FL,67.1,110,-115,115,115.0,92.5,100,105,105.0,115,130,145,145.0,365,1967
1,M,Julian Ulvang,SBD,R-M2,93,Raw,FL,91.5,190,205,215,215.0,155,162.5,167.5,167.5,210,232.5,240,240.0,622.5,1962
2,M,Gary Levenson,SBD,R-M2,93,Raw,FL,88,175,185,187.5,187.5,120,127.5,130,130.0,205,217.5,227.5,227.5,545,1964
1,M,Scott Hane,SBD,R-M2,120,Raw,FL,114.3,-165,165,-182.5,165.0,-157.5,157.5,-162.5,157.5,182.5,200,205,205.0,527.5,1962
1,M,Sam Trawick,SBD,R-M2,120+,Raw,FL,129.5,215,225,230,230.0,152.5,160,162.5,162.5,220,230,235,235.0,627.5,1966
1,M,Nam Ha,SBD,R-O,66,Raw,FL,65.7,165,175,182.5,182.5,115,125,-130,125.0,182.5,200,215,215.0,522.5,1986
2,M,Matthew Levit,SBD,R-O,66,Raw,FL,63.2,-147.5,147.5,157.5,157.5,97.5,102.5,-105,102.5,160,182.5,185,185.0,445,1994
1,M,Andrew Kwak,SBD,R-O,74,Raw,FL,72.3,130,140,150,150.0,87.5,95,102.5,102.5,160,170,182.5,182.5,435,1987
1,M,Anthony Chamba,SBD,R-O,83,Raw,FL,81.6,212.5,220,-227.5,220.0,125,132.5,-135,132.5,260,267.5,272.5,272.5,625,1991
2,M,Joshua Rickey,SBD,R-O,83,Raw,FL,81.2,172.5,182.5,192.5,192.5,125,135,-142.5,135.0,215,227.5,235,235.0,562.5,1987
3,M,Joshua Rickey,SBD,R-O,83,Raw,FL,81.2,172.5,182.5,192.5,192.5,125,135,-142.5,135.0,215,227.5,235,235.0,562.5,1987
4,M,Richard Falls,SBD,R-O,83,Raw,FL,82,180,192.5,-200,192.5,130,137.5,-142.5,137.5,190,210,232.5,232.5,562.5,1983
5,M,Paul Burrows Jr,SBD,R-O,83,Raw,FL,81.2,185,200,-205,200.0,130,-137.5,-137.5,130.0,210,225,230,230.0,560,1991
6,M,Christyan Marzullo,SBD,R-O,83,Raw,FL,81.6,192.5,-197.5,197.5,197.5,130,137.5,-142.5,137.5,225,-230,-230,225.0,560,1991
7,M,Andy Loiacano,SBD,R-O,83,Raw,FL,80.4,175,185,-195,185.0,105,110,115,115.0,185,195,205,205.0,505,1990
8,M,Charlie Miller,SBD,R-O,83,Raw,CO,81.8,172.5,180,-182.5,180.0,117.5,-122.5,-122.5,117.5,172.5,185,207.5,207.5,505,1983
9,M,Andres Pamparatto,SBD,R-O,83,Raw,FL,82.8,130,-137.5,145,145.0,110,120,127.5,127.5,147.5,195,215,215.0,487.5,1983
1,M,Anthony Loreto,SBD,R-O,93,Raw,FL,91.3,235,247.5,255,255.0,150,162.5,-170,162.5,285,310,-320,310.0,727.5,1986
2,M,David Tiderman,SBD,R-O,93,Raw,FL,89.4,-237.5,-237.5,237.5,237.5,142.5,-145,-145,142.5,-237.5,245,250,250.0,630,1991
3,M,Christopher Stevens,SBD,R-O,93,Raw,FL,90.2,-197.5,197.5,215,215.0,152.5,165,-170,165.0,220,235,-242.5,235.0,615,1979
4,M,Brian Chamba,SBD,R-O,93,Raw,FL,92.1,185,195,-200,195.0,125,135,142.5,142.5,220,230,240,240.0,577.5,1989
5,M,David Abella,SBD,R-O,93,Raw,FL,91.3,182.5,195,-200,195.0,102.5,120,125,125.0,207.5,217.5,227.5,227.5,547.5,1988
6,M,Jamie Guidry,SBD,R-O,93,Raw,FL,86.7,175,182.5,-192.5,182.5,117.5,122.5,125,125.0,207.5,227.5,-237.5,227.5,535,1987
7,M,Eric Gonzalez,SBD,R-O,93,Raw,FL,90,-185,185,200,200.0,125,130,-142.5,130.0,185,192.5,205,205.0,535,1999
8,M,German Melgar Roca,SBD,R-O,93,Raw,FL,92.2,185,187.5,-192.5,187.5,122.5,-127.5,-127.5,122.5,-215,222.5,-232.5,222.5,532.5,1996
9,M,Jason Bua,SBD,R-O,93,Raw,FL,90.2,165,177.5,185,185.0,122.5,130,-135,130.0,197.5,202.5,210,210.0,525,1982
10,M,Cody Neuweiler,SBD,R-O,93,Raw,FL,89.9,-165,170,-177.5,170.0,100,110,117.5,117.5,185,195,205,205.0,492.5,1981
11,M,Joseph Alvarez,SBD,R-O,93,Raw,FL,90,-157.5,165,180,180.0,102.5,115,-130,115.0,175,185,195,195.0,490,1992
12,M,Patrick Ochynski,SBD,R-O,93,Raw,FL,87.7,142.5,152.5,155,155.0,105,115,-125,115.0,150,,,150.0,420,1992
DQ,M,Sammy Medina,SBD,R-O,93,Raw,FL,89.7,-182.5,-185,185,185.0,-115,-115,-115,,202.5,207.5,-217.5,207.5,,1988
1,M,Steven Speranza,SBD,R-O,105,Raw,FL,104,235,245,-250,245.0,152.5,160,-167.5,160.0,262.5,272.5,277.5,277.5,682.5,1987
2,M,Matthew Karbowski,SBD,R-O,105,Raw,FL,98.8,220,237.5,242.5,242.5,150,165,-167.5,165.0,240,265,272.5,272.5,680,1991
3,M,John Tong,SBD,R-O,105,Raw,FL,100.5,180,200,217.5,217.5,125,137.5,-140,137.5,250,267.5,285,285.0,640,1982
4,M,Carl Hector,SBD,R-O,105,Raw,FL,97.9,182.5,207.5,-222.5,207.5,160,175,-185,175.0,227.5,252.5,-272.5,252.5,635,1989
5,M,Joseph Peña,SBD,R-O,105,Raw,FL,104.9,202.5,215,227.5,227.5,112.5,125,135,135.0,225,235,250,250.0,612.5,1998
6,M,Jonathan Graham,SBD,R-O,105,Raw,FL,99.9,-172.5,-172.5,182.5,182.5,142.5,165,-180,165.0,172.5,-227.5,227.5,227.5,575,1983
7,M,Yoel Carreno,SBD,R-O,105,Raw,FL,100.9,-190,-190,190,190.0,-130,130,-142.5,130.0,227.5,235,240,240.0,560,1990
8,M,Fernando Silva,SBD,R-O,105,Raw,FL,100.3,175,190,205,205.0,110,-120,-120,110.0,175,185,192.5,192.5,507.5,1993
1,M,Brian Lawrence,SBD,R-O,120,Raw,TN,115.6,165,175,182.5,182.5,82.5,87.5,100,100.0,-142.5,142.5,147.5,147.5,430,1984
2,M,Terrence Scott,SBD,R-O,120,Raw,FL,107.7,115,125,-137.5,125.0,82.5,90,97.5,97.5,162.5,172.5,182.5,182.5,405,1987
1,M,Kenneth Morris,SBD,R-O,120+,Raw,FL,137.7,305,-322.5,-322.5,305.0,197.5,207.5,-210,207.5,310,330,337.5,337.5,850,1985
2,M,Jordan Hagopian,SBD,R-O,120+,Raw,FL,131.6,232.5,247.5,-255,247.5,142.5,150,-157.5,150.0,240,255,265,265.0,662.5,1989
1,M,Andres Pamparatto,SBD,R-PF,83,Raw,FL,82.8,130,-137.5,145,145.0,110,120,127.5,127.5,147.5,195,215,215.0,487.5,1983
1,M,Joe Diprima,SBD,R-T2,83,Raw,FL,77.2,-185,185,195,195.0,97.5,102.5,-105,102.5,190,202.5,215,215.0,512.5,1998
1,M,Nicholas Rivero,SBD,R-T3,93,Raw,FL,92.2,185,220,230,230.0,137.5,140,-142.5,140.0,230,265,-272.5,265.0,635,1996
2,M,Charles Samper,SBD,R-T3,93,Raw,FL,86.2,157.5,162.5,167.5,167.5,-120,125,127.5,127.5,192.5,197.5,-200,197.5,492.5,1996
1,M,George Clauson,SBD,R-T3,120+,Raw,FL,144.2,195,205,230,230.0,120,135,-147.5,135.0,230,245,-270,245.0,610,1997
DQ,M,Wilbur Gamble,SBD,R-Y2,93,Raw,GA,86.3,-42.5,42.5,-55,42.5,-57.5,-57.5,-57.5,,75,80,85,85.0,,2004
1,M,Joey D'Agati,SBD,R-Y3,83,Raw,FL,77.1,107.5,-115,-115,107.5,65,72.5,-77.5,72.5,120,135,-140,135.0,315,2002
1,F,Cayti Neff,SBD,R-C,63,Raw,PA,62.9,97.5,105,-117.5,105.0,-60,65,-70,65.0,125,140,142.5,142.5,312.5,1996
2,F,Megan Arlett,SBD,R-C,63,Raw,FL,60.7,95,-102.5,102.5,102.5,50,-60,-60,50.0,97.5,102.5,-107.5,102.5,255,1992
1,F,Breanna Johnson,SBD,R-C,72,Raw,FL,64.9,87.5,97.5,107.5,107.5,70,77.5,82.5,82.5,122.5,132.5,142.5,142.5,332.5,1996
1,F,Katelyn Hosang,SBD,R-JR,63,Raw,FL,62.3,102.5,107.5,-115,107.5,47.5,50,-55,50.0,120,127.5,137.5,137.5,295,1993
2,F,Kelli Dari,SBD,R-JR,63,Raw,FL,60.1,87.5,95,100,100.0,55,57.5,-60,57.5,102.5,115,125,125.0,282.5,1992
1,F,Victoria Kramer,SBD,R-JR,72,Raw,FL,68.4,82.5,87.5,92.5,92.5,-45,45,47.5,47.5,110,120,127.5,127.5,267.5,1994
1,F,Amy Eisenberg,SBD,R-M1,52,Raw,FL,50.9,65,-72.5,-72.5,65.0,-42.5,42.5,-45,42.5,80,85,90,90.0,197.5,1966
DQ,F,Jill Lehman,SBD,R-M1,52,Raw,FL,50.6,-40,-40,-40,,40,-42.5,-42.5,40.0,72.5,77.5,80,80.0,,1969
1,F,JoAnne Friedman,SBD,R-M2,63,Raw,FL,61.9,-85,-92.5,92.5,92.5,45,50,-55,50.0,92.5,100,105,105.0,247.5,1965
2,F,Michele Cannella,SBD,R-M2,63,Raw,FL,57.2,65,-72.5,75,75.0,42.5,45,-50,45.0,100,105,110,110.0,230,1959
3,F,Robyn Mohr,SBD,R-M2,63,Raw,FL,58,70,77.5,80,80.0,42.5,-47.5,-47.5,42.5,92.5,100,107.5,107.5,230,1966
1,F,Courtney Sheehan,SBD,R-O,52,Raw,FL,47.1,82.5,-85,87.5,87.5,50,52.5,-55,52.5,102.5,105,110,110.0,250,1984
2,F,Julianne Davis,SBD,R-O,52,Raw,FL,51.1,-60,60,65,65.0,35,37.5,-40,37.5,77.5,82.5,87.5,87.5,190,1990
1,F,Ashley Trapp,SBD,R-O,57,Raw,FL,54.5,80,82.5,85,85.0,50,52.5,-55,52.5,92.5,97.5,102.5,102.5,240,1987
1,F,Rebecca Nunns,SBD,R-O,63,Raw,NC,61.3,122.5,-127.5,127.5,127.5,75,80,-85,80.0,140,150,-160,150.0,357.5,1990
2,F,Christina Pagiazitis,SBD,R-O,63,Raw,FL,60.3,110,115,120,120.0,65,-72.5,-72.5,65.0,130,132.5,-140,132.5,317.5,1986
3,F,Katelyn Hosang,SBD,R-O,63,Raw,FL,62.3,102.5,107.5,-115,107.5,47.5,50,-55,50.0,120,127.5,137.5,137.5,295,1993
1,F,Kelly Hafkey,SBD,R-O,72,Raw,FL,71.9,115,122.5,130,130.0,70,75,-80,75.0,142.5,147.5,-152.5,147.5,352.5,1981
2,F,Shari Meth,SBD,R-O,72,Raw,FL,67.4,105,115,125,125.0,52.5,60,65,65.0,117.5,125,137.5,137.5,327.5,1990
3,F,Gabriela Nunez,SBD,R-O,72,Raw,FL,71.3,105,110,115,115.0,55,60,-62.5,60.0,125,130,-137.5,130.0,305,1992
4,F,Danielle Rios,SBD,R-O,72,Raw,FL,71.9,100,102.5,-105,102.5,65,67.5,-72.5,67.5,112.5,117.5,122.5,122.5,292.5,1991
5,F,Kayla Pail,SBD,R-O,72,Raw,PA,69.7,-92.5,-92.5,95,95.0,47.5,50,-52.5,50.0,115,120,127.5,127.5,272.5,1989
6,F,Quillan Arico,SBD,R-O,72,Raw,FL,71.4,82.5,87.5,-95,87.5,47.5,50,-55,50.0,102.5,107.5,115,115.0,252.5,1985
7,F,Ivette Johnsen,SBD,R-O,72,Raw,FL,63.6,70,-77.5,-77.5,70.0,30,35,-37.5,35.0,82.5,92.5,102.5,102.5,207.5,1986
1,F,Sarah Shireen,SBD,R-O,84,Raw,FL,81.6,120,-127.5,-135,120.0,65,-70,70,70.0,120,130,140,140.0,330,1988
2,F,Sarah Caines,SBD,R-O,84,Raw,FL,82.8,70,80,92.5,92.5,47.5,-50,-50,47.5,102.5,107.5,112.5,112.5,252.5,1990
1,F,Nadine Louidor,SBD,R-O,84+,Raw,FL,104.5,147.5,152.5,157.5,157.5,-52.5,57.5,62.5,62.5,152.5,155,160,160.0,380,1982
2,F,Dorothy Durena,SBD,R-O,84+,Raw,FL,111.6,147.5,155,160,160.0,50,55,57.5,57.5,142.5,150,155,155.0,372.5,1990
1,F,Brianna Phillips,SBD,R-T2,57,Raw,FL,55.4,80,85,-90,85.0,-40,42.5,45,45.0,90,97.5,-100,97.5,227.5,2000
1,M,Jon Kennedy,BD,M1,120+,Single-ply,FL,144.6,,,,,162.5,207.5,-215,207.5,185,-240,-240,185.0,392.5,1973
1,M,Jorge Delgado,BD,R-O,83,Raw,FL,81,,,,,122.5,130,137.5,137.5,185,195,205,205.0,342.5,1985
1,M,Arthur Germaine,BD,R-O,105,Raw,FL,95.1,,,,,100,110,-115,110.0,200,205,210,210.0,320,1979
1,M,Matthew Shanosky,BD,R-O,120+,Raw,FL,171.6,,,,,130,132.5,-142.5,132.5,210,-227.5,-227.5,210.0,342.5,1985
1,F,Joanna Davis,BD,R-O,63,Raw,FL,60.4,,,,,57.5,62.5,65,65.0,85,92.5,97.5,97.5,162.5,1991
