Division,WeightClassKg,Place,Name,Team,BodyweightKg,Best3SquatKg,Best3BenchKg,Best3DeadliftKg,TotalKg,Equipment,Event,Sex
Boys,52,1,Trey Arras,Texarkana Liberty-Eylau,51.53,149.69,92.99,158.76,401.43,Single-ply,SBD,M
Boys,52,2,Jose Garcia,Diboll,50.53,117.93,83.91,142.88,344.73,Single-ply,SBD,M
Boys,52,3,Angel Barroso,Tyler Chapel Hill,50.98,113.4,74.84,129.27,317.51,Single-ply,SBD,M
Boys,52,4,Jordan Mayhall,Athens,50.71,129.27,58.97,127.01,315.25,Single-ply,SBD,M
Boys,52,5,Jose Lopez,Kaufman,45.72,108.86,61.23,117.93,288.03,Single-ply,SBD,M
Boys,52,6,Austin Caldwell,Wills Point,48.17,106.59,54.43,120.2,281.23,Single-ply,SBD,M
Boys,52,7,Jordan Prignit,Atlanta,51.44,102.06,45.36,106.59,254.01,Single-ply,SBD,M
Boys,52,8,Sonny Simons,Huntington,51.62,92.99,49.9,106.59,249.48,Single-ply,SBD,M
Boys,52,9,Darean Lemons,Quinlan Ford,49.17,92.99,34.02,104.33,231.33,Single-ply,SBD,M
Boys,52,10,Jared Burgin,Texarkana Pleasant Grove,50.08,83.91,36.29,99.79,219.99,Single-ply,SBD,M
Boys,52,DQ,Terrell Finley,Diboll,50.71,97.52,,,,Single-ply,SBD,M
Boys,56,1,Eric Reaper,Tyler Chapel Hill,55.7,176.9,102.06,165.56,444.52,Single-ply,SBD,M
Boys,56,2,Will McCowin,Bullard,55.79,142.88,70.31,167.83,381.02,Single-ply,SBD,M
Boys,56,3,Jackson Kennedy,Texarkana Pleasant Grove,55.52,138.35,97.52,142.88,378.75,Single-ply,SBD,M
Boys,56,4,Evelio Mendoza,Gilmer,55.25,140.61,70.31,136.08,347,Single-ply,SBD,M
Boys,56,5,Juan Garcia,Diboll,55.07,102.06,74.84,158.76,335.66,Single-ply,SBD,M
Boys,56,6,Manuel Vazquez,Athens,55.7,129.27,81.65,124.74,335.66,Single-ply,SBD,M
Boys,56,7,Daniel Vazquez,Athens,52.34,120.2,72.57,120.2,312.98,Single-ply,SBD,M
Boys,56,8,Michael Rosales,Rusk,55.07,120.2,65.77,127.01,312.98,Single-ply,SBD,M
Boys,56,9,Dalton Johnson,Atlanta,55.7,124.74,56.7,131.54,312.98,Single-ply,SBD,M
Boys,56,10,Desmond Walls,Madisonville,53.07,108.86,65.77,136.08,310.71,Single-ply,SBD,M
Boys,56,11,Bryce Evans,Paris North Lamar,54.7,117.93,68.04,124.74,310.71,Single-ply,SBD,M
Boys,56,12,Alex Rodriguez,Fairfield,55.79,122.47,65.77,113.4,301.64,Single-ply,SBD,M
Boys,56,13,Carl Shehane,Quinlan Ford,55.34,106.59,65.77,90.72,263.08,Single-ply,SBD,M
Boys,60,1,Isaiah Payne,Crandall,58.97,199.58,97.52,199.58,496.68,Single-ply,SBD,M
Boys,60,2,Josh Bolton,Paris North Lamar,59.06,167.83,97.52,174.63,439.98,Single-ply,SBD,M
Boys,60,3,Ethan Wagner,Texarkana Pleasant Grove,58.33,163.29,90.72,163.29,417.3,Single-ply,SBD,M
Boys,60,4,Gilbert Garcia,Longview Spring Hill,58.51,158.76,88.45,154.22,401.43,Single-ply,SBD,M
Boys,60,5,Roshabrius Garrett,Carthage,59.15,154.22,92.99,149.69,396.89,Single-ply,SBD,M
Boys,60,6,Kyler Cooper,Texarkana Pleasant Grove,59.42,136.08,95.25,158.76,390.09,Single-ply,SBD,M
Boys,60,7,Daniel Gannaway,Madisonville,59.87,147.42,68.04,167.83,383.29,Single-ply,SBD,M
Boys,60,8,Anqurrus Harris,Paris,59.69,151.95,72.57,154.22,378.75,Single-ply,SBD,M
Boys,60,9,Garrett Davis,Quinlan Ford,59.33,90.72,77.11,77.11,244.94,Single-ply,SBD,M
Boys,60,DQ,Arturo Jimenez,Ferris,58.97,,,,,Single-ply,SBD,M
Boys,67.5,1,Xzavius Gray,Paris,66.59,215.46,124.74,222.26,562.45,Single-ply,SBD,M
Boys,67.5,2,Leo Rosales,Rusk,66.22,213.19,124.74,213.19,551.11,Single-ply,SBD,M
Boys,67.5,3,Joseph Mahmoud,Athens,65.05,181.44,113.4,181.44,476.27,Single-ply,SBD,M
Boys,67.5,4,Clay Conway,Mabank,64.95,192.78,95.25,170.1,458.13,Single-ply,SBD,M
Boys,67.5,5,Travius Bronner,Paris,63.41,185.97,97.52,172.37,455.86,Single-ply,SBD,M
Boys,67.5,6,Cesar Colunga,Emory Rains,66.5,181.44,86.18,183.7,451.32,Single-ply,SBD,M
Boys,67.5,7,Conner Darnell,Paris North Lamar,64.77,163.29,129.27,154.22,446.79,Single-ply,SBD,M
Boys,67.5,8,Sean Collins,Gilmer,64.05,170.1,83.91,163.29,417.3,Single-ply,SBD,M
Boys,67.5,9,Jose Rodriguez,Fairfield,66.41,147.42,83.91,170.1,401.43,Single-ply,SBD,M
Boys,67.5,10,Ulisses Ramirez,Fairfield,63.41,151.95,81.65,165.56,399.16,Single-ply,SBD,M
Boys,67.5,DQ,Ellis Reyes,Madisonville,63.5,163.29,,,,Single-ply,SBD,M
Boys,75,1,Toby Thatcher,Bullard,72.21,222.26,129.27,206.38,557.92,Single-ply,SBD,M
Boys,75,2,JaCarlos Hall,Center,73.57,219.99,129.27,206.38,555.65,Single-ply,SBD,M
Boys,75,3,Jakerian Brown,Paris,74.75,199.58,120.2,192.78,512.56,Single-ply,SBD,M
Boys,75,4,Tadarius Williams,Paris,73.75,199.58,115.67,188.24,503.49,Single-ply,SBD,M
Boys,75,5,Alberto Alvarado,Brownsboro,71.94,199.58,95.25,206.38,501.22,Single-ply,SBD,M
Boys,75,6,David By,Pittsburg,73.03,188.24,108.86,192.78,489.88,Single-ply,SBD,M
Boys,75,7,Bryce Stephens,Brownsboro,67.59,181.44,122.47,176.9,480.81,Single-ply,SBD,M
Boys,75,8,Russell Olsen,Quinlan Ford,74.84,181.44,111.13,181.44,474,Single-ply,SBD,M
Boys,75,DQ,Jax Tobias,Van,74.57,,,,,Single-ply,SBD,M
Boys,75,DQ,Brennan Burnett,Huntington,70.03,,,,,Single-ply,SBD,M
Boys,82.5,1,Zanoah Arnold,Texarkana Liberty-Eylau,80.65,256.28,149.69,274.42,680.39,Single-ply,SBD,M
Boys,82.5,2,Witt Dockens,Center,81.65,226.8,138.35,201.85,566.99,Single-ply,SBD,M
Boys,82.5,3,Austin Davis,Bullard,78.65,204.12,136.08,208.65,548.85,Single-ply,SBD,M
Boys,82.5,4,Jacob Moore,Athens,79.56,215.46,115.67,210.92,542.04,Single-ply,SBD,M
Boys,82.5,5,Kyle Alexander #2,Bullard,81.1,215.46,127.01,192.78,535.24,Single-ply,SBD,M
Boys,82.5,6,Shelton Haskins,Atlanta,79.74,190.51,111.13,204.12,505.76,Single-ply,SBD,M
Boys,82.5,7,Jaxon Heveron,Paris North Lamar,80.38,195.04,120.2,190.51,505.76,Single-ply,SBD,M
Boys,82.5,8,Eric Pheng,Paris North Lamar,76.57,185.97,120.2,190.51,496.68,Single-ply,SBD,M
Boys,82.5,9,Maalik Hall,Athens,79.74,192.78,97.52,204.12,494.42,Single-ply,SBD,M
Boys,82.5,10,Zee Barfoot,Atlanta,81.83,174.63,124.74,183.7,483.08,Single-ply,SBD,M
Boys,82.5,DQ,Preston Bozeman,Huntington,77.38,,,,,Single-ply,SBD,M
Boys,82.5,DQ,Brysien Cross,Tyler Chapel Hill,78.83,,,,,Single-ply,SBD,M
Boys,90,1,Decorian Horton,Tyler Chapel Hill,87.72,258.55,140.61,249.48,648.64,Single-ply,SBD,M
Boys,90,2,Nick Cooper,Atlanta,85.09,247.21,136.08,251.74,635.03,Single-ply,SBD,M
Boys,90,3,Zane Koskelin,Mabank,87.72,251.74,156.49,226.8,635.03,Single-ply,SBD,M
Boys,90,4,Logan Fuller,Athens,88.54,260.82,154.22,219.99,635.03,Single-ply,SBD,M
Boys,90,5,Eli Britt,Emory Rains,89.18,251.74,142.88,226.8,621.42,Single-ply,SBD,M
Boys,90,6,Link Emard,Pittsburg,89.18,204.12,136.08,217.72,557.92,Single-ply,SBD,M
Boys,90,7,Brandon Amaya,Fairfield,85.82,238.14,120.2,192.78,551.11,Single-ply,SBD,M
Boys,90,8,Brad West,Carthage,85.18,190.51,115.67,192.78,498.95,Single-ply,SBD,M
Boys,90,9,Brandon Dickerson,Huntington,84.82,185.97,,,185.97,Single-ply,S,M
Boys,90,DQ,Corbin Rodriguez,Madisonville,85.46,,,,,Single-ply,SBD,M
Boys,100,1,Hunter Phelps,Bullard,98.7,306.17,204.12,249.48,759.77,Single-ply,SBD,M
Boys,100,2,Jeremiah Robertson,Huntington,94.53,272.16,145.15,249.48,666.78,Single-ply,SBD,M
Boys,100,3,Tyriq Burnett,Wills Point,98.25,222.26,154.22,251.74,628.23,Single-ply,SBD,M
Boys,100,4,Richard Mainor,Texarkana Liberty-Eylau,95.25,210.92,145.15,244.94,601.01,Single-ply,SBD,M
Boys,100,5,Quez Allen,Paris,98.61,222.26,124.74,249.48,596.47,Single-ply,SBD,M
Boys,100,6,Michael Lindley,Texarkana Liberty-Eylau,92.26,219.99,136.08,233.6,589.67,Single-ply,SBD,M
Boys,100,7,Chris Hunt,Diboll,99.52,226.8,129.27,222.26,578.33,Single-ply,SBD,M
Boys,100,8,Brandon Melton,Quinlan Ford,96.71,233.6,138.35,204.12,576.06,Single-ply,SBD,M
Boys,100,9,Ben Lowther,Diboll,95.44,192.78,129.27,238.14,560.19,Single-ply,SBD,M
Boys,100,10,Jacob Gomez,Fairfield,94.17,226.8,158.76,,385.55,Single-ply,SB,M
Boys,100,DQ,Landon Shelton,Texarkana Pleasant Grove,96.16,,,,,Single-ply,SBD,M
Boys,110,1,Cole Beddingfield,Fairfield,106.41,285.76,174.63,219.99,680.39,Single-ply,SBD,M
Boys,110,2,Landon Simmons,Atlanta,107.41,272.16,151.95,247.21,671.32,Single-ply,SBD,M
Boys,110,3,Nick Wright #2,Brownsboro,107.32,260.82,163.29,231.33,655.44,Single-ply,SBD,M
Boys,110,4,Noah Bush,Athens,101.15,238.14,163.29,238.14,639.57,Single-ply,SBD,M
Boys,110,5,Mitchell Graham,Bullard,109.68,260.82,142.88,235.87,639.57,Single-ply,SBD,M
Boys,110,6,Ryan Coleman,Fairfield,102.78,249.48,154.22,233.6,637.3,Single-ply,SBD,M
Boys,110,7,Nathan Boutin,Henderson,102.42,204.12,147.42,249.48,601.01,Single-ply,SBD,M
Boys,110,8,Brandon Halliday,Paris North Lamar,105.23,229.06,145.15,210.92,585.13,Single-ply,SBD,M
Boys,110,9,Keyuntea Kinney,Atlanta,108.86,215.46,136.08,226.8,578.33,Single-ply,SBD,M
Boys,110,10,Cheyenne Lockhart,Texarkana Liberty-Eylau,107.23,204.12,122.47,215.46,542.04,Single-ply,SBD,M
Boys,110,DQ,Jax Donohoo,Fairfield,106.96,,,,,Single-ply,SBD,M
Boys,110,DQ,Andrew Hardman,Wills Point,108.05,,,,,Single-ply,SBD,M
Boys,125,1,Chad Walker,Athens,121.74,285.76,208.65,238.14,732.55,Single-ply,SBD,M
Boys,125,2,JW McFarland,Bullard,120.29,272.16,181.44,229.06,682.66,Single-ply,SBD,M
Boys,125,3,Jeffery Dover,Diboll,119.66,272.16,142.88,254.01,669.05,Single-ply,SBD,M
Boys,125,4,Jamaal Wheeler,Gilmer,113.31,260.82,142.88,226.8,630.49,Single-ply,SBD,M
Boys,125,5,Dakota Helm,Paris,119.11,233.6,136.08,219.99,589.67,Single-ply,SBD,M
Boys,125,6,Trenton Thomas,Henderson,117.39,238.14,117.93,226.8,582.87,Single-ply,SBD,M
Boys,125,7,Weston Thomas,Henderson,114.94,231.33,117.93,213.19,562.45,Single-ply,SBD,M
Boys,125,8,Noel Rojo,Mabank,117.93,229.06,124.74,204.12,557.92,Single-ply,SBD,M
Boys,125,9,Tanner Duke,Atlanta,123.2,208.65,113.4,197.31,519.36,Single-ply,SBD,M
Boys,125,10,Jeremy Wood,Fairfield,111.22,244.94,,,244.94,Single-ply,S,M
Boys,125,DQ,Bradlee Warrick,Pittsburg,116.57,,,,,Single-ply,SBD,M
Boys,125,DQ,Josh Tillis,Palestine,116.21,,,,,Single-ply,SBD,M
Boys,125+,1,Daniel Zarzoza,Diboll,128.64,272.16,158.76,254.01,684.92,Single-ply,SBD,M
Boys,125+,2,Josh West,Athens,137.53,285.76,172.37,226.8,684.92,Single-ply,SBD,M
Boys,125+,3,Franklin Smith,Texarkana Liberty-Eylau,125.28,247.21,136.08,247.21,630.49,Single-ply,SBD,M
Boys,125+,4,Jonathan Amaro,Wills Point,130.18,260.82,158.76,208.65,628.23,Single-ply,SBD,M
Boys,125+,5,Byron Muse,Paris,125.55,222.26,158.76,222.26,603.28,Single-ply,SBD,M
Boys,125+,6,Jose Arreguin,Tyler Chapel Hill,126.01,238.14,149.69,210.92,598.74,Single-ply,SBD,M
Boys,125+,7,John Campbell,Bullard,135.17,249.48,142.88,197.31,589.67,Single-ply,SBD,M
Boys,125+,8,Kaleo Scott,Texarkana Pleasant Grove,130.91,229.06,124.74,229.06,582.87,Single-ply,SBD,M
Boys,125+,9,Kevin Turner,Mabank,141.52,249.48,142.88,183.7,576.06,Single-ply,SBD,M
Boys,125+,10,Colton Chandler,Longview Spring Hill,126.64,213.19,142.88,195.04,551.11,Single-ply,SBD,M
Boys,125+,11,Shamaal Parrish,Texarkana Liberty-Eylau,156.67,210.92,136.08,201.85,548.85,Single-ply,SBD,M
Boys,125+,12,Coby Wilbanks,Rusk,139.71,226.8,129.27,181.44,537.51,Single-ply,SBD,M
