Name,Country,BodyweightKg,WeightClassKg,Division,Place,Sex,Squat1Kg,Squat2Kg,Squat3Kg,Best3SquatKg,Bench1Kg,Bench2Kg,Bench3Kg,Best3BenchKg,Deadlift1Kg,Deadlift2Kg,Deadlift3Kg,Best3DeadliftKg,TotalKg,Event,Equipment
C. Lockard Jr,USA,50.12,52,Masters 40-44,1,M,102.5,112.5,-122.5,112.5,57.5,65,-67.5,65,-140,150,-152.5,150,327.5,SBD,Single-ply
Judy Gedney,USA,43.55,52,Masters 40-44,2,F,90,95,-97.5,95,52.5,57.5,60,60,110,120,-122.5,120,275,SBD,Single-ply
M. Schuette,USA,43.43,52,Masters 40-44,3,M,80,-87.5,-90,80,35,-40,-40,35,100,107.5,-110,107.5,222.5,SBD,Single-ply
T. Gennaro,USA,51.48,52,Masters 50-54,1,M,85,90,92.5,92.5,65,70,72.5,72.5,115,122.5,127.5,127.5,292.5,SBD,Single-ply
S. Perez,USA,50.69,52,Masters 55-59,1,M,105,115,120,120,72.5,77.5,-80,77.5,122.5,132.5,-140,132.5,330,SBD,Single-ply
J. Lusk,USA,55,56,Masters 40-44,1,M,160,-165,-165,160,-92.5,92.5,,92.5,185,-192.5,,185,437.5,SBD,Single-ply
F. Glass,USA,55.57,56,Masters 45-49,1,M,120,132.5,140,140,57.5,62.5,65,65,175,185,190,190,395,SBD,Single-ply
N. Gautier,USA,55.68,56,Masters 45-49,2,M,102.5,-117.5,117.5,117.5,-80,-80,80,80,137.5,160,-180,160,357.5,SBD,Single-ply
Minnie Roberts,USA,52.62,56,Masters 65-69,1,F,-65,-65,65,65,25,-35,37.5,37.5,77.5,87.5,,87.5,190,SBD,Single-ply
C. Foster,USA,58.77,60,Masters 40-44,1,M,155,170,-177.5,170,115,-117.5,-117.5,115,182.5,200,207.5,207.5,492.5,SBD,Single-ply
M. Lawson,USA,59.65,60,Masters 40-44,2,M,177.5,185,190,190,87.5,95,-97.5,95,185,-200,-202.5,185,470,SBD,Single-ply
J. Liberatore,USA,59.53,60,Masters 50-54,1,M,102.5,125,-132.5,125,92.5,102.5,-105,102.5,137.5,-182.5,-182.5,137.5,365,SBD,Single-ply
R. Greenwald,USA,,67.5,Masters 40-44,1,M,207.5,-217.5,-217.5,207.5,120,-125,125,125,-192.5,192.5,200,200,532.5,SBD,Single-ply
V. Breen,USA,,67.5,Masters 40-44,2,M,-92.5,92.5,102.5,102.5,45,-50,-52.5,45,120,130,-140,130,277.5,SBD,Single-ply
Diane Frantz,USA,,67.5,Masters 45-49,1,F,167.5,175,182.5,182.5,80,87.5,-90,87.5,180,192.5,-205,192.5,462.5,SBD,Single-ply
W. Imahara,USA,67.5,67.5,Masters 45-49,2,M,-150,150,170,170,107.5,115,120,120,150,160,-170,160,450,SBD,Single-ply
B. Bonner,USA,62.37,67.5,Masters 45-49,3,M,90,100,110,110,47.5,55,-57.5,55,117.5,127.5,137.5,137.5,302.5,SBD,Single-ply
P. Neyer,USA,,67.5,Masters 50-54,1,M,192.5,200,-207.5,200,100,-105,-105,100,232.5,242.5,,242.5,542.5,SBD,Single-ply
M. Ferguson,USA,,67.5,Masters 50-54,2,M,-142.5,142.5,160,160,85,92.5,95,95,177.5,195,-200,195,450,SBD,Single-ply
J. Hubbard,USA,,67.5,Masters 60-64,1,M,127.5,137.5,-145,137.5,80,-85,-85,80,160,170,,170,387.5,SBD,Single-ply
Floyd Lyon,USA,73.94,75,Masters 40-44,1,M,-257.5,257.5,-272.5,257.5,147.5,-155,-155,147.5,250,265,272.5,272.5,677.5,SBD,Single-ply
E. Angstrom,USA,75,75,Masters 40-44,2,M,180,-190,-190,180,137.5,142.5,145,145,182.5,200,205,205,530,SBD,Single-ply
W. Vargas,USA,73.48,75,Masters 40-44,3,M,195,-210,-210,195,122.5,-127.5,,122.5,182.5,200,-210,200,517.5,SBD,Single-ply
G. Crockett,USA,74.63,75,Masters 45-49,1,M,217.5,-232.5,-232.5,217.5,125,130,-132.5,130,217.5,235,-240,235,582.5,SBD,Single-ply
R. Pamulo,USA,74.39,75,Masters 45-49,2,M,210,232.5,-240,232.5,115,-122.5,,115,210,232.5,-240,232.5,580,SBD,Single-ply
L. Baker,USA,73.82,75,Masters 45-49,3,M,170,-175,-175,170,112.5,120,-127.5,120,150,172.5,-180,172.5,462.5,SBD,Single-ply
E. Trevorah,USA,72.58,75,Masters 45-49,4,M,125,-132.5,132.5,132.5,45,50,52.5,52.5,130,-137.5,,130,315,SBD,Single-ply
R. Greenlow,USA,74.84,75,Masters 45-49,DQ,M,-165,-165,-165,,,,,,,,,,,SBD,Single-ply
L. Mintz,USA,74.58,75,Masters 45-49,DQ,M,-247.5,-247.5,-262.5,,,,,,,,,,,SBD,Single-ply
C. Williamson,USA,73.35,75,Masters 50-54,1,M,172.5,190,195,195,107.5,115,117.5,117.5,200,-210,-210,200,512.5,SBD,Single-ply
A. Montini,USA,73.6,75,Masters 50-54,2,M,147.5,-160,-160,147.5,100,105,107.5,107.5,192.5,205,-210,205,460,SBD,Single-ply
R. Bendel,USA,74.73,75,Masters 55-59,1,M,127.5,137.5,142.5,142.5,105,-110,-110,105,185,207.5,212.5,212.5,460,SBD,Single-ply
G. Buckley,USA,73.82,75,Masters 60-64,1,M,127.5,-137.5,137.5,137.5,70,-82.5,-82.5,70,152.5,165,-167.5,165,372.5,SBD,Single-ply
Roy Mason,USA,69.97,75,Masters 60-64,2,M,25,,,25,25,,,25,217.5,-222.5,237.5,237.5,287.5,SBD,Single-ply
B. Brand,USA,71.55,75,Masters 65-69,1,M,132.5,-142.5,-145,132.5,75,-80,-80,75,172.5,182.5,,182.5,390,SBD,Single-ply
Jim Rouse,USA,82.33,82.5,Masters 40-44,1,M,262.5,275,282.5,282.5,217.5,227.5,-232.5,227.5,277.5,290,,290,800,SBD,Single-ply
R. Pereda,USA,81.65,82.5,Masters 40-44,2,M,265,277.5,-285,277.5,140,150,-155,150,250,-260,,250,677.5,SBD,Single-ply
S. Bailey,USA,82.5,82.5,Masters 40-44,3,M,230,255,-265,255,150,-160,-160,150,230,-255,-265,230,635,SBD,Single-ply
L. Casados,USA,80.51,82.5,Masters 40-44,4,M,205,-227.5,227.5,227.5,142.5,-147.5,155,155,227.5,-250,250,250,632.5,SBD,Single-ply
J. Saunders,USA,82.5,82.5,Masters 40-44,5,M,-210,210,215,215,117.5,122.5,-127.5,122.5,250,-260,,250,587.5,SBD,Single-ply
T. Waters,USA,81.53,82.5,Masters 40-44,6,M,205,215,-217.5,215,117.5,122.5,127.5,127.5,190,202.5,,202.5,545,SBD,Single-ply
J. Jackson,USA,82.1,82.5,Masters 40-44,7,M,170,-185,185,185,-122.5,122.5,-135,122.5,170,185,-192.5,185,492.5,SBD,Single-ply
T. Trevorah,USA,80.74,82.5,Masters 45-49,1,M,-227.5,227.5,,227.5,-137.5,137.5,-142.5,137.5,217.5,-232.5,,217.5,582.5,SBD,Single-ply
E. Hill,USA,77.68,82.5,Masters 45-49,2,M,,-212.5,212.5,212.5,110,117.5,-122.5,117.5,220,230,,230,560,SBD,Single-ply
G. Daig,USA,80.85,82.5,Masters 45-49,3,M,-185,-185,192.5,192.5,122.5,127.5,-132.5,127.5,200,220,230,230,550,SBD,Single-ply
F. Perry,USA,80.4,82.5,Masters 50-54,1,M,95,102.5,-112.5,102.5,92.5,-100,-100,92.5,95,137.5,165,165,360,SBD,Single-ply
R. Roberts,USA,80.51,82.5,Masters 50-54,DQ,M,155,-172.5,-172.5,155,-102.5,-102.5,-102.5,,,,,,,SBD,Single-ply
Mac Richards,USA,82.5,82.5,Masters 55-59,1,M,185,-197.5,-197.5,185,125,137.5,-142.5,137.5,192.5,205,-215,205,527.5,SBD,Single-ply
J. Box,USA,82.1,82.5,Masters 60-64,1,M,130,145,152.5,152.5,112.5,120,,120,180,192.5,-200,192.5,465,SBD,Single-ply
W. Starling,USA,80.29,82.5,Masters 60-64,2,M,-107.5,107.5,-112.5,107.5,82.5,87.5,-90,87.5,125,137.5,142.5,142.5,337.5,SBD,Single-ply
J. Elder,USA,81.31,82.5,Masters 65-69,1,M,112.5,-137.5,-137.5,112.5,62.5,-67.5,67.5,67.5,150,165,-182.5,165,345,SBD,Single-ply
N. Foster,USA,89.02,90,Masters 40-44,1,M,227.5,250,262.5,262.5,147.5,155,162.5,162.5,272.5,302.5,-325,302.5,727.5,SBD,Single-ply
R. Hale,USA,88.79,90,Masters 40-44,2,M,245,262.5,275,275,162.5,-165,-165,162.5,237.5,250,-262.5,250,687.5,SBD,Single-ply
S. Zimmerman,USA,89.59,90,Masters 40-44,3,M,245,257.5,262.5,262.5,132.5,140,,140,237.5,250,,250,652.5,SBD,Single-ply
W. Patillo,USA,88.45,90,Masters 40-44,4,M,205,227.5,,227.5,-160,165,-175,165,205,227.5,-237.5,227.5,620,SBD,Single-ply
H. Morgan,USA,89.25,90,Masters 40-44,5,M,210,230,240,240,120,125,130,130,227.5,245,247.5,247.5,617.5,SBD,Single-ply
J. Stefonsky,USA,89.59,90,Masters 40-44,6,M,230,-245,-245,230,122.5,132.5,-135,132.5,222.5,-232.5,,222.5,585,SBD,Single-ply
R. Boothe,USA,89.47,90,Masters 40-44,7,M,-205,205,212.5,212.5,115,-120,120,120,227.5,245,,245,577.5,SBD,Single-ply
K. Hansen,USA,87.09,90,Masters 40-44,8,M,-205,-205,205,205,-137.5,137.5,-142.5,137.5,205,-222.5,,205,547.5,SBD,Single-ply
B. Thompson,USA,90,90,Masters 40-44,9,M,200,-212.5,-212.5,200,137.5,142.5,-147.5,142.5,200,-212.5,-212.5,200,542.5,SBD,Single-ply
L. Vargas,USA,88,90,Masters 40-44,10,M,-180,-180,185,185,132.5,-137.5,,132.5,180,185,190,190,507.5,SBD,Single-ply
M. Trevithick,USA,83.24,90,Masters 40-44,11,M,120,135,150,150,37.5,-50,-55,37.5,120,135,-145,135,322.5,SBD,Single-ply
L. Hopfe,USA,89.25,90,Masters 45-49,1,M,150,165,-170,165,102.5,-107.5,107.5,107.5,182.5,205,,205,477.5,SBD,Single-ply
H. McCoy,USA,86.64,90,Masters 45-49,2,M,160,172.5,-182.5,172.5,102.5,110,112.5,112.5,175,187.5,-192.5,187.5,472.5,SBD,Single-ply
K. Dowling,USA,89.59,90,Masters 45-49,3,M,50,75,80,80,-110,-110,110,110,115,125,137.5,137.5,327.5,SBD,Single-ply
J. Adams,USA,83.46,90,Masters 45-49,DQ,M,,,,,,,,,,,,,,SBD,Single-ply
Daryl Johnson,USA,89.02,90,Masters 50-54,1,M,195,215,227.5,227.5,137.5,,,137.5,227.5,232.5,245,245,610,SBD,Single-ply
K. Todd,USA,88.11,90,Masters 50-54,DQ,M,142.5,-160,-160,142.5,-90,-90,-90,,,,,,,SBD,Single-ply
R. McCarty,USA,88.56,90,Masters 55-59,1,M,205,-217.5,-222.5,205,122.5,-132.5,-132.5,122.5,205,217.5,227.5,227.5,555,SBD,Single-ply
E. Dorman,USA,83.01,90,Masters 60-64,1,M,125,137.5,147.5,147.5,105,110,-115,110,125,-147.5,147.5,147.5,405,SBD,Single-ply
J. Kurpiel,USA,87.54,90,Masters 65-69,1,M,-137.5,137.5,155,155,90,95,97.5,97.5,182.5,200,-210,200,452.5,SBD,Single-ply
D. David,USA,83.46,90,Masters 70+,1,M,-67.5,67.5,77.5,77.5,60,65,67.5,67.5,75,85,100,100,245,SBD,Single-ply
R. Rood,USA,99,100,Masters 40-44,1,M,227.5,-242.5,-250,227.5,182.5,192.5,197.5,197.5,232.5,247.5,267.5,267.5,692.5,SBD,Single-ply
D. Taylor,USA,98.9,100,Masters 40-44,2,M,250,-260,-260,250,170,-182.5,-182.5,170,245,255,-265,255,675,SBD,Single-ply
R. Makarawicz,USA,99.1,100,Masters 40-44,3,M,-235,235,250,250,162.5,-170,170,170,235,250,-257.5,250,670,SBD,Single-ply
T. Coble,USA,98.2,100,Masters 40-44,4,M,-230,-230,230,230,140,145,-150,145,230,250,-265,250,625,SBD,Single-ply
B. Cioccio,USA,91.4,100,Masters 40-44,5,M,-167.5,167.5,-185,167.5,-132.5,132.5,-137.5,132.5,142.5,182.5,205,205,505,SBD,Single-ply
Ernie Frantz,USA,95.5,100,Masters 45-49,1,M,337.5,-352.5,-352.5,337.5,212.5,-220,-220,212.5,320,340,-357.5,340,890,SBD,Single-ply
D. Mills,USA,99.6,100,Masters 45-49,2,M,307.5,327.5,-340,327.5,202.5,-215,-215,202.5,307.5,325,-340,325,855,SBD,Single-ply
D. Yezbick,USA,100,100,Masters 45-49,3,M,-250,-252.5,252.5,252.5,177.5,-190,190,190,250,,,250,692.5,SBD,Single-ply
B. Bates,USA,96.5,100,Masters 45-49,4,M,182.5,-197.5,-197.5,182.5,112.5,-117.5,117.5,117.5,205,-220,-220,205,505,SBD,Single-ply
N. Kelley,USA,93.7,100,Masters 50-54,1,M,190,202.5,-210,202.5,97.5,-102.5,-102.5,97.5,205,227.5,240,240,540,SBD,Single-ply
W. Underhill,USA,94.6,100,Masters 50-54,2,M,180,190,-202.5,190,127.5,132.5,-137.5,132.5,185,205,-227.5,205,527.5,SBD,Single-ply
T. Callahan,USA,100,100,Masters 50-54,3,M,-150,150,-170,150,105,110,-125,110,180,192.5,-205,192.5,452.5,SBD,Single-ply
Ernie Nagy,USA,97.9,100,Masters 55-59,1,M,207.5,222.5,-232.5,222.5,140,150,-160,150,210,230,245,245,617.5,SBD,Single-ply
J. Davis,USA,95.7,100,Masters 55-59,2,M,-92.5,-92.5,92.5,92.5,62.5,65,,65,115,150,-170,150,307.5,SBD,Single-ply
Henry Soudieres,USA,95,100,Masters 70+,1,M,125,140,147.5,147.5,-95,95,-100,95,155,175,182.5,182.5,425,SBD,Single-ply
Robert Pleticha,USA,109.5,110,Masters 40-44,1,M,317.5,320,337.5,337.5,-227.5,227.5,-230,227.5,290,305,317.5,317.5,882.5,SBD,Single-ply
M. Mitchell,USA,104.8,110,Masters 40-44,2,M,325,-335,-335,325,182.5,192.5,-200,192.5,250,285,300,300,817.5,SBD,Single-ply
J. Cummins,USA,109.5,110,Masters 40-44,3,M,-220,-220,265,265,177.5,-185,-185,177.5,250,265,-272.5,265,707.5,SBD,Single-ply
R. Swaim,USA,100.01,110,Masters 45-49,1,M,265,280,-287.5,280,150,160,162.5,162.5,265,272.5,282.5,282.5,725,SBD,Single-ply
C. Walker,USA,108.6,110,Masters 45-49,2,M,265,-282.5,-282.5,265,172.5,187.5,-190,187.5,-262.5,262.5,-282.5,262.5,715,SBD,Single-ply
M. Giardina,USA,105.3,110,Masters 45-49,3,M,-182.5,182.5,-200,182.5,122.5,137.5,145,145,185,200,,200,527.5,SBD,Single-ply
L. Radzieski,USA,108.9,110,Masters 55-59,1,M,-155,155,177.5,177.5,130,137.5,-140,137.5,205,230,,230,545,SBD,Single-ply
B. Harris,USA,110,110,Masters 55-59,2,M,-167.5,167.5,172.5,172.5,-107.5,107.5,110,110,197.5,-205,,197.5,480,SBD,Single-ply
P. Pendley,USA,101.2,110,Masters 65-69,1,M,62.5,82.5,,82.5,95,102.5,110,110,112.5,127.5,140,140,332.5,SBD,Single-ply
D. Fitzpatrick,USA,116.8,125,Masters 40-44,1,M,287.5,302.5,-317.5,302.5,192.5,205,-212.5,205,260,272.5,,272.5,780,SBD,Single-ply
N. Strange,USA,122.9,125,Masters 40-44,2,M,250,-272.5,-272.5,250,-162.5,162.5,170,170,275,-295,297.5,297.5,717.5,SBD,Single-ply
G. Kostuch,USA,119.5,125,Masters 40-44,3,M,-165,165,187.5,187.5,170,182.5,-187.5,182.5,-192.5,-207.5,207.5,207.5,577.5,SBD,Single-ply
C. Yelton,USA,122.6,125,Masters 45-49,1,M,-255,255,265,265,175,187.5,-192.5,187.5,272.5,295,,295,747.5,SBD,Single-ply
H. Hudson,USA,117.3,125,Masters 45-49,2,M,-245,245,272.5,272.5,175,-187.5,-187.5,175,-262.5,-262.5,262.5,262.5,710,SBD,Single-ply
T. Smith,USA,114.2,125,Masters 45-49,3,M,-170,170,-182.5,170,115,125,,125,205,222.5,235,235,530,SBD,Single-ply
Ed Riley,USA,120.4,125,Masters 45-49,DQ,M,-295,-295,-295,,,,,,,,,,,SBD,Single-ply
B. Ross,USA,123.2,125,Masters 50-54,1,M,255,-272.5,-277.5,255,147.5,170,-182.5,170,255,277.5,292.5,292.5,717.5,SBD,Single-ply
D. Martin,USA,130,125+,Masters 40-44,1,M,250,280,-292.5,280,160,180,-185,180,285,-327.5,327.5,327.5,787.5,SBD,Single-ply
O. Jensen,USA,141.8,125+,Masters 40-44,2,M,227.5,-240,,227.5,150,-160,-160,150,250,-275,,250,627.5,SBD,Single-ply
Ron Hudec,USA,135.2,125+,Masters 40-44,3,M,65,,,65,220,227.5,-232.5,227.5,187.5,200,220,220,512.5,SBD,Single-ply
Chuck Braxton,USA,124.5,125,Masters 45-49,1,M,310,-335,,310,-182.5,182.5,,182.5,320,342.5,355,355,847.5,SBD,Single-ply
H. Selling,USA,151.6,125+,Masters 45-49,2,M,-185,185,,185,145,-155,,145,-205,205,230,230,560,SBD,Single-ply
J. Kasperski,USA,137.1,125+,Masters 60-64,1,M,-110,110,125,125,107.5,115,-127.5,115,137.5,165,-182.5,165,405,SBD,Single-ply
C. Lockard,USA,50.12,52,Masters 40-49,1,M,102.5,112.5,-122.5,112.5,57.5,65,-67.5,65,140,150,-152.5,150,327.5,SBD,Single-ply
T. Gennaro,USA,51.48,52,Masters 50+,1,M,85,90,92.5,92.5,65,70,72.5,72.5,115,122.5,127.5,127.5,292.5,SBD,Single-ply
J. Lusk,USA,55,56,Masters 40-49,1,M,160,-165,-165,160,-92.5,92.5,,92.5,185,-192.5,,185,437.5,SBD,Single-ply
T. Koike,Japan,53.9,56,Masters 50+,1,M,105,-120,-125,105,65,67.5,72.5,72.5,-125,125,-135,125,302.5,SBD,Single-ply
A. Rygh,Norway,59.76,60,Masters 40-49,1,M,-175,175,185,185,107.5,112.5,115,115,190,-200,-200,190,490,SBD,Single-ply
E. Brown,UK,59,60,Masters 50+,1,M,150,170,177.5,177.5,105,112.5,115,115,180,202.5,-207.5,202.5,495,SBD,Single-ply
J. Moir,Canada,67.5,67.5,Masters 40-49,1,M,225,-240,-240,225,155,160,165,165,240,250,-260,250,640,SBD,Single-ply
V. Karvinen,Finland,67.5,67.5,Masters 40-49,2,M,230,,,230,145,155,-205,155,-125,125,,125,510,SBD,Single-ply
Phil Neyer,USA,67.25,67.5,Masters 50+,1,M,192.5,200,-207.5,200,100,-105,-105,100,232.5,242.5,,242.5,542.5,SBD,Single-ply
M. Ferguson,USA,66.57,67.5,Masters 50+,2,M,-142.5,142.5,160,160,85,92.5,95,95,177.5,195,-200,195,450,SBD,Single-ply
F. Lyon,USA,73.94,75,Masters 40-49,1,M,-257.5,257.5,-272.5,257.5,147.5,-155,-155,147.5,250,265,272.5,272.5,677.5,SBD,Single-ply
Lappalainen,Finland,75,75,Masters 40-49,2,M,-255,255,-270,255,135,-140,-140,135,260,282.5,-290,282.5,672.5,SBD,Single-ply
T. Dangerfield,UK,71.33,75,Masters 40-49,3,M,227.5,242.5,-250,242.5,132.5,-137.5,-137.5,132.5,252.5,-272.5,-272.5,252.5,627.5,SBD,Single-ply
K. De Vries,Canada,74.54,75,Masters 40-49,4,M,190,205,-215,205,125,-130,132.5,132.5,190,205,215,215,552.5,SBD,Single-ply
Nordtomme,Norway,74.28,75,Masters 40-49,5,M,-195,-195,195,195,100,-110,-110,100,200,215,-220,215,510,SBD,Single-ply
K. Skybakl,Norway,73.82,75,Masters 50+,1,M,230,-240,240,240,130,137.5,140,140,270,285,-300,285,665,SBD,Single-ply
M. Haaksiala,Finland,79.27,82.5,Masters 40-49,1,M,200,230,245,245,140,155,165,165,230,245,-255,245,655,SBD,Single-ply
B. Larsen,Norway,79.83,82.5,Masters 40-49,2,M,250,260,265,265,140,-145,-145,140,200,240,-255,240,645,SBD,Single-ply
M. Lukich,Canada,75.3,82.5,Masters 40-49,3,M,180,192.5,200,200,102.5,-110,-110,102.5,205,220,227.5,227.5,530,SBD,Single-ply
F. Perry,USA,80.4,82.5,Masters 50+,1,M,95,102.5,-112.5,102.5,92.5,-100,-100,92.5,95,137.5,165,165,360,SBD,Single-ply
J. Elder,USA,81.31,82.5,Masters 50+,2,M,112.5,-137.5,-137.5,112.5,62.5,-67.5,67.5,67.5,150,165,-182.5,165,345,SBD,Single-ply
N. Foster,USA,89.02,90,Masters 40-49,1,M,227.5,250,262.5,262.5,147.5,157.5,162.5,162.5,272.5,302.5,-325,302.5,727.5,SBD,Single-ply
W. Patillo,USA,88.45,90,Masters 40-49,2,M,205,227.5,,227.5,160,165,-175,165,205,227.5,-237.5,227.5,620,SBD,Single-ply
J. Sarich,Canada,90,90,Masters 40-49,3,M,200,-227.5,-227.5,200,140,145,147.5,147.5,-237.5,237.5,,237.5,585,SBD,Single-ply
Christopher,Norway,84.82,90,Masters 40-49,4,M,185,-200,-200,185,120,125,-130,125,220,230,-250,230,540,SBD,Single-ply
D. Johnson,USA,89.02,90,Masters 50+,1,M,195,215,227.5,227.5,137.5,-142.5,,137.5,227.5,237.5,245,245,610,SBD,Single-ply
D. Mills,USA,99.6,100,Masters 40-49,1,M,307.5,327.5,-340,327.5,202.5,-215,-215,202.5,307.5,325,-340,325,855,SBD,Single-ply
Jan Monstad,Norway,94.6,100,Masters 40-49,2,M,190,205,215,215,100,-107.5,-110,100,240,255,267.5,267.5,582.5,SBD,Single-ply
Hjalmarsson,Iceland,99,100,Masters 50+,1,M,215,-225,225,225,-127.5,-127.5,127.5,127.5,270,-290,-290,270,622.5,SBD,Single-ply
Ernie Nagy,USA,97.9,100,Masters 50+,2,M,207.5,222.5,-232.5,222.5,140,150,-160,150,210,230,245,245,617.5,SBD,Single-ply
M. Mitchell,USA,104.8,110,Masters 40-49,1,M,325,-335,-335,325,182.5,192.5,-200,192.5,250,285,300,300,817.5,SBD,Single-ply
John Wright,Australia,104.6,110,Masters 50+,1,M,-255,255,265,265,160,165,170,170,270,280,290,290,725,SBD,Single-ply
B. Oyangen,Norway,109.1,110,Masters 50+,2,M,260,270,-280,270,145,-155,-155,145,260,280,-290,280,695,SBD,Single-ply
Pentti Nikkanen,Finland,113,125,Masters 40-49,1,M,250,270,280,280,170,180,187.5,187.5,-270,270,300,300,767.5,SBD,Single-ply
H. Hudson,USA,117.3,125,Masters 40-49,2,M,-245,245,272.5,272.5,175,-187.5,-187.5,175,-257.5,-257.5,262.5,262.5,710,SBD,Single-ply
B. Ross,USA,123.2,125,Masters 50+,1,M,255,-272.5,-277.5,255,147.5,170,-182.5,170,255,277.5,292.5,292.5,717.5,SBD,Single-ply
D. Martin,USA,130,125+,Masters 40-49,1,M,250,280,-292.5,280,160,177.5,-185,177.5,285,-327.5,327.5,327.5,785,SBD,Single-ply
