Name,WeightClassKg,BodyweightKg,State,Best3BenchKg,Best3DeadliftKg,TotalKg,Event,Equipment,Sex,Division,Place
Thomas Berg,82.5,78.02,MS,106.59,190.51,297.1,BD,Single-ply,M,Teenage 18-19,1
Natalie Kuchmen,82.5,78.93,MS,83.91,124.74,208.65,BD,Single-ply,M,Open,1
Jared Aden,90,86.91,MS,127.01,,127.01,B,Raw,M,Juniors,1
Atavis Campbell,125,123.74,MS,215.46,,215.46,B,Raw,M,Open,1
Chad McMullin,110,103.96,MS,265.35,,265.35,B,Multi-ply,M,Sub-Masters,1
Chad McMullin,110,103.96,MS,,226.8,226.8,D,Raw,M,Sub-Masters,1
Ken Jordan,90,86.64,AR,,170.1,170.1,D,Raw,M,Masters 65-69,1
