Name,Place,Division,Sex,Equipment,State,WeightClassKg,BodyweightKg,Age,Best3SquatKg,Squat4Kg,Best3BenchKg,Bench4Kg,Best3DeadliftKg,Deadlift4Kg,TotalKg,Event
Mary Tran,1,Junior 20-23,F,Raw,CA,48,47.04,22,87.50,,37.50,,125.00,127.5,250.00,SBD
Raquel Dagalea,2,Junior 20-23,F,Raw,CA,48,46.49,23,85.00,,45.00,,115.00,,245.00,SBD
Tiffany Vu,3,Junior 20-23,F,Raw,CA,48,47.36,23,85.00,,35.00,,112.50,,232.50,SBD
Sherry Echano,1,Junior 20-23,F,Raw,CA,52,51.48,21,97.50,,53.50,55,125.00,,276.00,SBD
Jennifer Aguilera,2,Junior 20-23,F,Raw,CA,52,51.17,20,90.00,,42.50,,120.00,,252.50,SBD
Charisse Gallibu,3,Junior 20-23,F,Raw,CA,52,51.26,23,82.50,,42.50,,117.50,,242.50,SBD
Yer Yang,4,Junior 20-23,F,Raw,WI,52,50.85,21,92.50,,47.50,,97.50,,237.50,SBD
Criselda Fajardo,1,Junior 20-23,F,Raw,CA,56,55.79,21,122.50,,62.50,,150.00,155,335.00,SBD
Shawna Chan,2,Junior 20-23,F,Raw,CA,56,55.38,22,122.50,,55.00,,145.00,,322.50,SBD
Carolina Millan,3,Junior 20-23,F,Raw,CA,56,54.93,22,97.50,,47.50,,105.00,,250.00,SBD
Kimberly Martinez,1,Junior 18-19,F,Raw,CA,60,58.83,19,95.00,,40.00,,120.00,,255.00,SBD
Caitlin Martinez,1,Junior 20-23,F,Raw,CA,60,58.97,20,112.50,118,75.00,,150.00,155,337.50,SBD
Jenny Tu,2,Junior 20-23,F,Raw,CA,60,58.33,23,130.00,,72.50,77.5,132.50,,335.00,SBD
Bianca Mendoza,3,Junior 20-23,F,Raw,CA,60,59.69,20,92.50,,60.00,,125.00,,277.50,SBD
Danielle Alvarez,DQ,Junior 20-23,F,Raw,CA,60,59.87,23,102.50,,-52.50,,130.00,,,SBD
Sara Olguin,1,Junior 16-17,F,Raw,AZ,67.5,67.00,17,97.50,,62.50,,110.00,,270.00,SBD
Jessica Cubias,1,Junior 20-23,F,Raw,CA,67.5,66.59,20,120.00,,52.50,,145.00,,317.50,SBD
Kayla Zeppeiro,2,Junior 20-23,F,Raw,CA,67.5,64.09,22,100.00,,52.50,,150.00,,302.50,SBD
Rainee Khabagnote,3,Junior 20-23,F,Raw,CA,67.5,61.33,20,92.50,,42.50,,122.50,,257.50,SBD
Kay Martinez,1,Junior 20-23,F,Raw,CA,82.5,79.97,23,115.00,,57.50,,137.50,,310.00,SBD
Henee Lee,1,Open,F,Raw,CA,44,42.27,36,42.50,,25.00,,50.00,,117.50,SBD
Raquel Dagalea,1,Open,F,Raw,CA,48,46.49,23,85.00,,45.00,,115.00,,245.00,SBD
Dawn Gonzales,1,Open,F,Raw,CA,52,48.13,28,87.50,,47.50,,110.00,,245.00,SBD
Sabrina Gonzales,1,Open,F,Raw,CA,56,55.02,24,105.00,,52.50,,150.00,,307.50,SBD
Amanda Jahnke,2,Open,F,Raw,CA,56,55.20,30,80.00,,55.00,,120.00,,255.00,SBD
Tiffany Dang,3,Open,F,Raw,CA,56,54.34,25,97.50,,42.50,,102.50,,242.50,SBD
Devika Parashar,DQ,Open,F,Raw,CA,56,54.75,28,-65.00,,35.00,,87.50,,,SBD
Chuquesie Huffman,1,Open,F,Raw,CA,60,59.19,27,100.00,,57.50,,155.00,,312.50,SBD
Alice Zheng,2,Open,F,Raw,CA,60,57.52,27,90.00,,47.50,,100.00,,237.50,SBD
Kayla Sapida,1,Open,F,Raw,CA,67.5,64.64,24,132.50,,60.00,,142.50,,335.00,SBD
Kimbley Lau,2,Open,F,Raw,NV,67.5,64.82,28,105.00,,52.50,,145.00,,302.50,SBD
Deshawndra Trevino,3,Open,F,Raw,CA,67.5,66.72,25,110.00,,55.00,,125.00,,290.00,SBD
Corinna Ledford,4,Open,F,Raw,CA,67.5,66.22,36,92.50,,57.50,,132.50,,282.50,SBD
Alexis Glascock,5,Open,F,Raw,CA,67.5,61.05,25,70.00,,42.50,,115.00,,227.50,SBD
Nina Kanni,DQ,Open,F,Raw,CA,67.5,66.45,29,102.50,,-57.50,,,,,SBD
Laci Knight,1,Open,F,Raw,CA,75,73.75,33,105.00,,65.00,,140.00,,310.00,SBD
Megan Leong,2,Open,F,Raw,CA,75,73.03,25,112.50,,67.50,,127.50,,307.50,SBD
Heidi Hansen,1,Open,F,Raw,CA,82.5,79.15,27,127.50,,75.00,,137.50,,340.00,SBD
Sara Holt,2,Open,F,Raw,CA,82.5,76.57,26,120.00,,75.00,,135.00,,330.00,SBD
Henee Lee,1,Submaster 35-39,F,Raw,CA,44,42.27,36,42.50,,25.00,,50.00,,117.50,SBD
Corinna Ledford,1,Submaster 35-39,F,Raw,CA,67.5,66.22,36,92.50,,57.50,,132.50,,282.50,SBD
Valerie Muller,1,Master 40-44,F,Raw,CA,75,72.39,40,102.50,,30.00,,132.50,,265.00,SBD
Betty Heriford,1,Master 60-64,F,Raw,OR,75,69.04,63,92.50,,90.00,,137.50,,320.00,SBD
Minardo Ordonez,1,Junior 20-23,M,Raw,CA,56,55.75,21,120.00,,80.00,,152.50,,352.50,SBD
Phyman Dang,1,Junior 18-19,M,Raw,CA,60,59.74,19,162.50,,85.00,,175.00,,422.50,SBD
Mark Yabut,1,Junior 20-23,M,Raw,CA,60,59.47,22,122.50,,77.50,,162.50,,362.50,SBD
Greg Vera Cruz,2,Junior 20-23,M,Raw,CA,60,59.38,21,122.50,,77.50,,160.00,,360.00,SBD
Gerald Lebrilla,1,Junior 20-23,M,Raw,CA,67.5,67.00,21,182.50,,117.50,,245.00,,545.00,SBD
Tyler Husband,2,Junior 20-23,M,Raw,CA,67.5,66.54,22,175.00,,142.50,,220.00,,537.50,SBD
Peter Pham,3,Junior 20-23,M,Raw,CA,67.5,66.72,20,200.00,,107.50,,222.50,,530.00,SBD
Samuel Blanco,4,Junior 20-23,M,Raw,CA,67.5,67.09,21,185.00,,117.50,,227.50,,530.00,SBD
William Wong,5,Junior 20-23,M,Raw,CA,67.5,65.77,20,182.50,,102.50,,220.00,,505.00,SBD
Al Serna,6,Junior 20-23,M,Raw,CA,67.5,65.23,23,167.50,,120.00,,160.00,,447.50,SBD
Jouansi Martinez,7,Junior 20-23,M,Raw,CA,67.5,65.18,21,112.50,,85.00,,215.00,,412.50,SBD
Luis Ortuno,1,Junior 16-17,M,Raw,CA,75,72.85,17,215.00,,115.00,,238.00,240,568.00,SBD
Jonathan Kim,1,Junior 18-19,M,Raw,CA,75,74.30,19,192.50,,110.00,,217.50,,520.00,SBD
Kenneth Untalan,2,Junior 18-19,M,Raw,CA,75,74.34,19,175.00,,100.00,,215.00,,490.00,SBD
Manuel Flores,3,Junior 18-19,M,Raw,CA,75,73.98,19,185.00,,105.00,,190.00,,480.00,SBD
Kevin Meneray,4,Junior 18-19,M,Raw,CA,75,70.53,19,137.50,,95.00,,182.50,,415.00,SBD
Daniel Ly,1,Junior 20-23,M,Raw,CA,75,72.89,23,180.00,,157.50,,235.00,,572.50,SBD
Brian Shin,2,Junior 20-23,M,Raw,CA,75,72.62,23,190.00,,120.00,,200.00,,510.00,SBD
Charlton Le,3,Junior 20-23,M,Raw,CA,75,74.62,23,175.00,,107.50,,225.00,,507.50,SBD
Joseph Yeary,4,Junior 20-23,M,Raw,AZ,75,71.71,22,140.00,,120.00,,185.00,,445.00,SBD
George Tahan,5,Junior 20-23,M,Raw,CA,75,74.62,20,147.50,,110.00,,187.50,,445.00,SBD
Taras Chavarha,DQ,Junior 20-23,M,Raw,CA,75,74.62,23,-205.00,,,,,,,SBD
Anthony Housein,1,Junior 16-17,M,Raw,CA,82.5,75.98,16,155.00,,107.50,,172.50,,435.00,SBD
Ericson Torralba,1,Junior 18-19,M,Raw,CA,82.5,78.34,19,215.00,,127.50,,235.00,,577.50,SBD
Brett Aniello,2,Junior 18-19,M,Raw,CA,82.5,79.51,19,190.00,,122.50,,217.50,,530.00,SBD
Tyler Yasuda,1,Junior 20-23,M,Raw,CA,82.5,79.29,20,220.00,,140.00,,275.00,,635.00,SBD
Faris Jamil,2,Junior 20-23,M,Raw,CA,82.5,81.51,21,217.50,,140.00,,275.00,278,632.50,SBD
William Valle,3,Junior 20-23,M,Raw,CA,82.5,81.28,21,237.50,,142.50,,247.50,,627.50,SBD
Daniel Camacho,4,Junior 20-23,M,Raw,CA,82.5,81.65,20,222.50,,157.50,,227.50,,607.50,SBD
David Kim,5,Junior 20-23,M,Raw,CA,82.5,79.88,23,197.50,,130.00,,255.00,,582.50,SBD
Jimmy Tu,6,Junior 20-23,M,Raw,CA,82.5,77.07,20,205.00,,115.00,,245.00,,565.00,SBD
Ed Kim,7,Junior 20-23,M,Raw,CA,82.5,81.10,21,182.50,,110.00,,272.50,,565.00,SBD
Mateo Diaz,8,Junior 20-23,M,Raw,CA,82.5,80.47,23,190.00,,132.50,,232.50,,555.00,SBD
Jonathan Liang,9,Junior 20-23,M,Raw,CA,82.5,81.65,20,192.50,,140.00,,215.00,,547.50,SBD
Jose Rodriguez,10,Junior 20-23,M,Raw,CA,82.5,79.11,22,177.50,,135.00,,232.50,,545.00,SBD
Ayron McKay,11,Junior 20-23,M,Raw,CA,82.5,80.20,21,170.00,,107.50,,237.50,,515.00,SBD
Brian Guzman,12,Junior 20-23,M,Raw,CA,82.5,80.06,20,150.00,,115.00,,202.50,,467.50,SBD
Andrew GenKuong,13,Junior 20-23,M,Raw,CA,82.5,79.88,21,182.50,,90.00,,177.50,,450.00,SBD
Troy Rodriguez,14,Junior 20-23,M,Raw,CA,82.5,75.07,20,142.50,,107.50,,152.50,,402.50,SBD
David Avila,DQ,Junior 20-23,M,Raw,CA,82.5,82.19,20,205.00,,-152.50,,235.00,,,SBD
Cameron Hansen,1,Junior 16-17,M,Raw,CA,90,88.99,16,145.00,,92.50,,195.00,,432.50,SBD
Roche McCoy,1,Junior 18-19,M,Raw,CA,90,87.41,19,175.00,,152.50,157.5,237.50,,565.00,SBD
Jose Garcia,1,Junior 20-23,M,Raw,CA,90,87.59,21,265.00,,187.50,,287.50,,740.00,SBD
Timothy Ellis,2,Junior 20-23,M,Raw,CA,90,86.09,22,242.50,,157.50,,245.00,,645.00,SBD
Phillip Vu,3,Junior 20-23,M,Raw,CA,90,88.27,21,237.50,,120.00,,250.00,,607.50,SBD
Dong Kim,4,Junior 20-23,M,Raw,CA,90,87.72,21,205.00,,105.00,,240.00,,550.00,SBD
Frank Torres,5,Junior 20-23,M,Raw,CA,90,89.86,21,192.50,,142.50,,210.00,,545.00,SBD
Phuc Nguyen,6,Junior 20-23,M,Raw,CA,90,86.86,22,167.50,,95.00,,200.00,,462.50,SBD
Angus Nguyen,7,Junior 20-23,M,Raw,CA,90,83.91,21,160.50,,85.00,,185.00,,430.50,SBD
Michael Kendrick,DQ,Junior 20-23,M,Raw,CA,90,88.59,20,190.00,,-110.00,,227.50,,,SBD
Mitchell Evans,DQ,Junior 20-23,M,Raw,CA,90,89.13,22,-170.00,,-125.00,,215.00,,,SBD
Samuel Olguin,1,Junior 20-23,M,Raw,AZ,100,96.98,21,212.50,,152.50,,240.00,,605.00,SBD
Joshua Ortega,2,Junior 20-23,M,Raw,CA,100,94.26,20,202.50,,147.50,,250.00,,600.00,SBD
Luis Hernandez,1,Junior 18-19,M,Raw,CA,110,108.36,18,140.00,,82.50,,172.50,,395.00,SBD
Donny Tudahl,1,Junior 20-23,M,Raw,CA,110,107.73,23,270.00,,195.00,,287.50,,752.50,SBD
Anthony Nocera,2,Junior 20-23,M,Raw,CA,110,108.64,20,235.00,,140.00,,257.50,,632.50,SBD
Fredy Ramirez,1,Junior 20-23,M,Raw,CA,125,115.39,22,227.50,,172.50,,282.50,,682.50,SBD
Steve Wright,1,Open,M,Raw,CA,67.5,65.09,30,152.50,,117.50,,190.00,,460.00,SBD
Andrew Argel,2,Open,M,Raw,CA,67.5,65.63,25,155.00,,82.50,,205.00,,442.50,SBD
Cody Lefever,1,Open,M,Raw,CA,75,74.12,28,200.00,,145.00,,265.00,,610.00,SBD
Kevin Owen,2,Open,M,Raw,CA,75,73.26,33,167.50,,142.50,,217.50,,527.50,SBD
Christopher Le,3,Open,M,Raw,CA,75,73.84,24,147.50,,105.00,,230.00,,482.50,SBD
Dan Aurelio,4,Open,M,Raw,CA,75,70.17,25,157.50,,105.00,,207.50,,470.00,SBD
Taras Chavarha,DQ,Open,M,Raw,CA,75,74.62,23,-205.00,,,,,,,SBD
Ryan Wu,1,Open,M,Raw,CA,82.5,81.69,26,210.00,,150.00,,245.00,,605.00,SBD
Danny Cox,2,Open,M,Raw,CA,82.5,79.56,24,182.50,,120.00,,245.00,,547.50,SBD
Tyler Schaeffer,3,Open,M,Raw,CA,82.5,80.88,27,185.00,,132.50,,225.00,,542.50,SBD
Matthew Covell,4,Open,M,Raw,CA,82.5,81.10,27,182.50,,115.00,,237.50,,535.00,SBD
Brett Aniello,5,Open,M,Raw,CA,82.5,79.51,19,190.00,,122.50,,217.50,,530.00,SBD
Hermann Goss,6,Open,M,Raw,CA,82.5,80.74,24,147.50,,120.00,,200.00,,467.50,SBD
Fady Mansi,7,Open,M,Raw,CA,82.5,81.06,30,155.00,,122.50,,187.50,,465.00,SBD
Jasan Perez,8,Open,M,Raw,CA,82.5,80.92,26,157.50,,92.50,,197.50,,447.50,SBD
Jonathan Franzen,9,Open,M,Raw,CA,82.5,80.20,29,130.00,,120.00,,170.00,,420.00,SBD
Anderson Nguyen,10,Open,M,Raw,CA,82.5,78.88,22,130.00,,85.00,,147.50,,362.50,SBD
Michael Rios,DQ,Open,M,Raw,CA,82.5,81.78,24,-157.50,,102.50,,220.00,,,SBD
Jeremy Klein,DQ,Open,M,Raw,CA,82.5,78.02,24,-140.00,,,,,,,SBD
Joseph Bollman,DQ,Open,M,Raw,CA,82.5,80.97,24,195.00,,-132.50,,,,,SBD
Nate Suangpo,1,Open,M,Raw,CA,90,87.95,32,245.00,,167.50,,282.50,,695.00,SBD
David Lomeli,2,Open,M,Raw,CA,90,88.99,29,227.50,,207.50,,230.00,,665.00,SBD
John Lee,3,Open,M,Raw,CA,90,89.99,39,230.00,,155.00,,265.00,,650.00,SBD
Jon Hodges,4,Open,M,Raw,NV,90,87.59,33,192.50,,157.50,,232.50,,582.50,SBD
John Demery,5,Open,M,Raw,CA,90,85.87,24,195.00,,137.50,,240.00,,572.50,SBD
Greg Moss,6,Open,M,Raw,CA,90,87.86,26,185.00,,137.50,,250.00,,572.50,SBD
Sambat Mom,7,Open,M,Raw,CA,90,86.18,28,190.00,,110.00,,260.00,,560.00,SBD
Joshua Salem,8,Open,M,Raw,CA,90,88.45,24,197.50,,130.00,,232.50,,560.00,SBD
Brendan McWalters,9,Open,M,Raw,CA,90,89.99,25,180.00,,140.00,,230.00,,550.00,SBD
Bradley Adams,10,Open,M,Raw,CA,90,88.13,29,192.50,,120.00,,232.50,,545.00,SBD
Lui Hung,11,Open,M,Raw,CA,90,86.18,24,165.00,,122.50,,192.50,,480.00,SBD
Scott Stevenson,12,Open,M,Raw,CA,90,86.73,26,165.00,,105.00,,210.00,,480.00,SBD
Ben Fong,1,Open,M,Raw,CA,100,96.75,30,242.50,,175.00,,287.50,,705.00,SBD
Daniel Ishii,2,Open,M,Raw,CA,100,99.11,27,237.50,,150.00,,282.50,,670.00,SBD
Danny Kang,3,Open,M,Raw,CA,100,97.16,36,215.00,,155.00,,237.50,,607.50,SBD
Steven Dandurand,4,Open,M,Raw,CA,100,98.61,27,205.00,,145.00,,202.50,,552.50,SBD
Andrew Brethorst,5,Open,M,Raw,CA,100,96.43,28,157.50,,105.00,,197.50,,460.00,SBD
Donny Tudahl,1,Open,M,Raw,CA,110,107.73,23,270.00,,195.00,,287.50,,752.50,SBD
Aaron Terry,2,Open,M,Raw,CA,110,107.91,25,277.50,,172.50,,290.00,,740.00,SBD
Barrett Marum,3,Open,M,Raw,CA,110,109.45,36,237.50,,170.00,,262.50,,670.00,SBD
Michael Wiegers,4,Open,M,Raw,CA,110,104.37,33,227.50,,147.50,,250.00,,625.00,SBD
Rocky Bang,5,Open,M,Raw,CA,110,101.92,29,180.00,,117.50,,230.00,,527.50,SBD
Sean Lugo,6,Open,M,Raw,CA,110,106.19,28,195.00,,125.00,,207.50,,527.50,SBD
Jordan Grahm,7,Open,M,Raw,CA,110,107.95,27,187.50,,125.00,,212.50,,525.00,SBD
Matthew Saner,1,Open,M,Raw,CA,125,121.65,28,237.50,,175.00,,272.50,,685.00,SBD
Raf Dancel,2,Open,M,Raw,CA,125,124.06,29,205.00,,120.00,,242.50,,567.50,SBD
Justin Suh,1,Open,M,Raw,CA,140,130.68,24,162.50,,115.00,,195.00,,472.50,SBD
O'Neil Roussell,1,Open,M,Raw,CA,140+,162.75,28,275.00,,200.00,,275.00,,750.00,SBD
John Lee,1,Submaster 35-39,M,Raw,CA,90,89.99,39,230.00,,155.00,,265.00,,650.00,SBD
Mike Campbell,DQ,Master 55-59,M,Raw,CA,67.5,66.50,56,-132.50,,,,,,,SBD
Nathan Charrissesin,DQ,Master 40-44,M,Raw,CA,82.5,79.51,42,-145.00,,,,,,,SBD
Lewis Jennings,1,Master 40-44,M,Raw,CA,90,88.18,40,182.50,,140.00,,252.50,,575.00,SBD
Dominik Hauser,2,Master 40-44,M,Raw,CA,90,88.41,43,188.00,192.5,120.00,,220.00,,528.00,SBD
Daniel Mahan,1,Master 45-49,M,Raw,CA,90,89.22,48,200.00,,120.00,,252.50,,572.50,SBD
Lyle Honig,DQ,Master 40-44,M,Raw,CA,110,100.61,44,-227.50,,,,,,,SBD
Howard Myers,1,Master 65-69,M,Raw,CA,100,95.66,68,160.00,,65.00,,185.00,,410.00,SBD
Elizabeth Parker,1,Open,F,Wraps,CA,67.5,67.13,26,142.50,,87.50,90,155.00,,385.00,SBD
Michelle Griffith,2,Open,F,Wraps,CA,67.5,67.13,32,77.50,,35.00,,120.00,,232.50,SBD
Jarred Allen,1,Junior 20-23,M,Wraps,CA,75,74.25,21,197.50,,140.00,,217.50,,555.00,SBD
Christian Garcilazo,DQ,Junior 20-23,M,Wraps,CA,75,74.84,22,-160.00,,115.00,,227.50,,,SBD
Alec Reyes,1,Junior 20-23,M,Wraps,CA,82.5,76.61,23,162.50,,110.00,,197.50,,470.00,SBD
Eric Avila,1,Junior 20-23,M,Wraps,AZ,90,89.27,22,220.00,,122.50,,232.50,240,575.00,SBD
Gerardo Medina,2,Junior 20-23,M,Wraps,CA,90,88.72,22,192.50,,142.50,,222.50,,557.50,SBD
Dominic Solis,3,Junior 20-23,M,Wraps,CA,90,88.77,21,157.50,,110.00,,207.50,,475.00,SBD
Peter Hartin,1,Junior 20-23,M,Wraps,CA,100,94.26,20,195.00,,137.50,,242.50,,575.00,SBD
Vincent Craig,1,Junior 20-23,M,Wraps,CA,125,116.71,23,227.50,,185.00,,265.00,,677.50,SBD
Gustavo Villasenor,1,Junior 16-17,M,Wraps,CA,140,136.76,16,235.00,,125.00,,235.00,,595.00,SBD
Jarred Allen,1,Open,M,Wraps,CA,75,74.25,21,197.50,,140.00,,217.50,,555.00,SBD
Charlie Chawalitmetha,1,Open,M,Wraps,CA,82.5,79.29,24,197.50,,147.50,,265.00,,610.00,SBD
Eric Avila,1,Open,M,Wraps,AZ,90,89.27,22,220.00,,122.50,,232.50,,575.00,SBD
Weston Smith,2,Open,M,Wraps,CA,90,87.95,24,215.00,,147.50,,197.50,,560.00,SBD
Chris Durham,3,Open,M,Wraps,CA,90,87.63,40,162.50,,117.50,,185.00,,465.00,SBD
Rob Deutsche,4,Open,M,Wraps,CA,90,85.18,32,145.00,,95.00,,170.00,,410.00,SBD
Josh Gregg,DQ,Open,M,Wraps,CA,90,89.04,27,-220.00,,-130.00,,242.50,,,SBD
Matt Mitchell,1,Open,M,Wraps,CA,100,98.25,22,310.00,,202.50,205,265.00,,777.50,SBD
Tim Copeland,2,Open,M,Wraps,CA,100,98.02,47,207.50,,145.00,,227.50,,580.00,SBD
Tristan Lodge,3,Open,M,Wraps,CA,100,97.75,24,190.00,,130.00,,245.00,,565.00,SBD
James Grinstead,4,Open,M,Wraps,CA,100,97.93,25,180.00,,135.00,,210.00,,525.00,SBD
Aaron Brake,1,Open,M,Wraps,CA,110,105.96,34,227.50,,172.50,,250.00,,650.00,SBD
Shawn Lawson,1,Submaster 35-39,M,Wraps,CA,110,106.73,36,227.50,,185.00,,250.00,,662.50,SBD
William Gutierrez,1,Master 40-44,M,Wraps,CA,75,74.16,43,132.50,,110.00,,185.00,,427.50,SBD
Marco Cadava,1,Master 50-54,M,Wraps,CA,82.5,80.97,50,185.00,,107.50,,182.50,,475.00,SBD
Tom Lujan,2,Master 50-54,M,Wraps,CA,82.5,81.33,51,125.00,,97.50,,155.00,,377.50,SBD
Mike Wallace,1,Master 60-64,M,Wraps,CA,82.5,81.10,61,110.00,,77.50,,155.00,,342.50,SBD
Chris Durham,1,Master 40-44,M,Wraps,CA,90,87.63,40,162.50,,117.50,,185.00,,465.00,SBD
Omar Pacheco,1,Master 40-44,M,Wraps,CA,100,96.80,40,190.00,,130.00,,182.50,,502.50,SBD
Tim Copeland,1,Master 45-49,M,Wraps,CA,100,98.02,47,207.50,,145.00,,227.50,,580.00,SBD
Michael Pennington,1,Master 50-54,M,Wraps,CA,100,95.84,51,165.00,167.5,120.00,,227.50,,512.50,SBD
Bruce MacKenzie,1,Master 65-69,M,Wraps,CA,100,92.49,67,137.50,,97.50,,187.50,,422.50,SBD
Ryan Barr,1,Master 45-49,M,Wraps,CA,110,108.77,45,227.50,,142.50,,260.00,,630.00,SBD
Chris Grace,1,Master 40-44,M,Wraps,CA,125,114.12,42,240.00,,192.50,,260.00,,692.50,SBD
Joseph Armenta,1,Master 45-49,M,Wraps,CA,125,115.89,45,212.50,,130.00,,217.50,,560.00,SBD
Shanrekia Bower,DQ,Submaster 35-39,F,Single-ply,CA,90+,125.28,39,-215.00,,,,,,,SBD
Jaimes Spring,1,Junior 20-23,M,Single-ply,CA,90,88.04,23,182.50,,142.50,,220.00,,545.00,SBD
Ivan Palomino,1,Open,M,Single-ply,CA,82.5,80.24,24,242.50,,165.00,,237.50,,645.00,SBD
Vithuran Arulmoli,1,Open,M,Single-ply,CA,110,106.37,25,265.00,,180.00,,245.00,,690.00,SBD
Jose Hernandez,1,Master 45-49,M,Single-ply,CA,82.5,79.02,46,205.00,,130.00,,205.00,,540.00,SBD
Ed Mitchell,1,Master 40-44,M,Single-ply,CA,125,114.35,41,260.00,,205.00,,245.00,,710.00,SBD
Chris Bartl,1,Open,M,Multi-ply,CA,110,108.68,36,345.00,,250.00,,305.00,,900.00,SBD
Marcus Wild,DQ,Open,M,Multi-ply,CA,125,115.35,37,-352.50,,,,,,,SBD
Kimberly Martinez,1,Junior 18-19,F,Raw,CA,60,58.83,19,,,40.00,,,,40.00,B
Tracie Marquez,1,Master 50-54,F,Raw,CA,90,89.95,51,,,72.50,,,,72.50,B
Nicolas Nevarez,1,Junior 20-23,M,Raw,CA,60,59.74,23,,,77.50,,,,77.50,B
Ryan Siggal,1,Junior 20-23,M,Raw,CA,67.5,64.77,23,,,105.00,,,,105.00,B
Vincent Craig,1,Junior 20-23,M,Raw,CA,125,116.71,23,,,185.00,,,,185.00,B
Jason Vicente,1,Open,M,Raw,CA,67.5,65.86,30,,,135.00,,,,135.00,B
John Komorosky,1,Open,M,Raw,CA,90,87.77,25,,,170.00,,,,170.00,B
Martin Skinner,1,Open,M,Raw,CA,100,95.44,26,,,125.00,,,,125.00,B
Dylan Lawrence,DQ,Open,M,Raw,CA,140,129.32,36,,,-175.00,,,,,B
LeRoy Walker,1,Open,M,Raw,CA,140+,168.65,37,,,287.50,,,,287.50,B
Brent Irek,DQ,Submaster 35-39,M,Raw,CA,110,103.56,39,,,-140.00,,,,,B
Rick Gutman,1,Master 60-64,M,Raw,CA,75,73.48,60,,,115.00,,,,115.00,B
David Bultman,1,Master 65-69,M,Raw,CA,82.5,81.65,69,,,127.50,,,,127.50,B
Daniel Smith III,1,Master 70-74,M,Raw,CA,110,105.28,71,,,160.00,,,,160.00,B
Gerry Torres,1,Master 55-59,M,Raw,CA,125,121.88,57,,,150.00,,,,150.00,B
Kimberly Martinez,1,Junior 18-19,F,Raw,CA,60,58.83,19,,,,,120.00,,120.00,D
Kayla Zeppeiro,1,Junior 20-23,F,Raw,CA,67.5,64.09,22,,,,,150.00,,150.00,D
Tracie Marquez,1,Master 50-54,F,Raw,CA,90,89.95,51,,,,,115.00,,115.00,D
Nicolas Nevarez,1,Junior 20-23,M,Raw,CA,60,59.74,23,,,,,125.00,,125.00,D
Ryan Siggal,1,Junior 20-23,M,Raw,CA,67.5,64.77,23,,,,,177.50,,177.50,D
Cameron Hansen,1,Junior 16-17,M,Raw,CA,90,88.99,16,,,,,195.00,,195.00,D
Tyler Van Loon,1,Junior 20-23,M,Raw,CA,110,106.05,21,,,,,132.50,,132.50,D
Vincent Craig,1,Junior 20-23,M,Raw,CA,125,116.71,23,,,,,265.00,,265.00,D
Tyler Van Loon,1,Open,M,Raw,CA,110,106.05,21,,,,,132.50,,132.50,D
Brent Irek,1,Submaster 35-39,M,Raw,CA,110,103.56,39,,,,,235.00,,235.00,D
Michael Pennington,1,Master 50-54,M,Raw,CA,100,95.84,51,,,,,227.50,,227.50,D
Gerry Torres,1,Master 55-59,M,Raw,CA,125,121.88,57,,,,,185.00,,185.00,D
Kyle Planeaux,1,Open,M,Single-ply,CA,90,86.23,24,,,,,255.00,,255.00,D
Ryan Davis,1,Submaster 35-39,M,Single-ply,CA,100,98.20,35,,,,,252.50,,252.50,D
Jason Clauson,2,Submaster 35-39,M,Single-ply,CA,100,94.08,36,,,,,215.00,,215.00,D
Mark O'Brien,1,Master 50-54,M,Single-ply,CA,90,87.50,50,,,,,227.50,,227.50,D
Leonetta Richardson,1,Open,F,Multi-ply,HI,82.5,79.20,36,,,,,237.50,,237.50,D
