Division,WeightClassKg,Place,Name,Team,BodyweightKg,Best3SquatKg,Best3BenchKg,Best3DeadliftKg,TotalKg,Equipment,Event,Sex
Boys,52,1,Joey Gonzalez,Buda Hays,51.62,124.74,77.11,133.81,335.66,Single-ply,SBD,M
Boys,52,2,Therrance Soto,San Marcos,50.44,120.2,63.5,136.08,319.78,Single-ply,SBD,M
Boys,52,3,DJ Walker,Georgetown East View,51.62,90.72,56.7,111.13,258.55,Single-ply,SBD,M
Boys,52,4,Joel Berrum,Austin Lake Travis,51.07,102.06,38.56,92.99,233.6,Single-ply,SBD,M
Boys,52,5,Josh Muniga,Geronimo Navarro,46.72,83.91,49.9,97.52,231.33,Single-ply,SBD,M
Boys,56,1,Luke Merchant,San Marcos,55.79,120.2,79.38,149.69,349.27,Single-ply,SBD,M
Boys,56,2,Chris Guerra,Georgetown East View,55.16,104.33,88.45,124.74,317.51,Single-ply,SBD,M
Boys,56,3,Isaac Trejo,San Marcos,55.7,111.13,68.04,136.08,315.25,Single-ply,SBD,M
Boys,60,1,Jacob Esquivel,Seguin,58.15,195.04,113.4,190.51,498.95,Single-ply,SBD,M
Boys,60,2,Zeke Martinez,San Marcos,55.97,165.56,102.06,185.97,453.59,Single-ply,SBD,M
Boys,60,3,Austin Carrow,Austin Lake Travis,59.51,142.88,102.06,183.7,428.64,Single-ply,SBD,M
Boys,60,4,Nate Burnett,Lockhart,58.88,145.15,88.45,170.1,403.7,Single-ply,SBD,M
Boys,60,5,Chris Velasquez,Geronimo Navarro,58.15,156.49,90.72,140.61,387.82,Single-ply,SBD,M
Boys,60,6,Michael Maurillo,Georgetown East View,57.88,138.35,86.18,124.74,349.27,Single-ply,SBD,M
Boys,60,7,Bart Bartholomew,Austin Westlake,59.15,127.01,77.11,124.74,328.85,Single-ply,SBD,M
Boys,67.5,1,Brandon Palomares,Seguin,65.5,219.99,113.4,219.99,553.38,Single-ply,SBD,M
Boys,67.5,2,Sam Muniz,San Marcos,62.87,172.37,90.72,217.72,480.81,Single-ply,SBD,M
Boys,67.5,3,Cody Elizalde,Seguin,64.23,181.44,97.52,188.24,467.2,Single-ply,SBD,M
Boys,67.5,4,Javier Solis,Wimberley,63.05,190.51,102.06,172.37,464.93,Single-ply,SBD,M
Boys,67.5,5,Aiden Lee-Wenn,Austin Westlake,66.59,172.37,113.4,167.83,453.59,Single-ply,SBD,M
Boys,67.5,6,Anthony Espinoza,Georgetown East View,65.05,147.42,74.84,161.03,383.29,Single-ply,SBD,M
Boys,67.5,7,Chris Gomes,Austin Lake Travis,62.51,131.54,88.45,136.08,356.07,Single-ply,SBD,M
Boys,67.5,8,Camren Willwerth,Del Valle,67.13,127.01,72.57,142.88,342.46,Single-ply,SBD,M
Boys,67.5,DQ,Alex Vargas,Del Valle,65.41,127.01,97.52,,,Single-ply,SBD,M
Boys,75,1,Ever Calderon,Buda Hays,71.67,199.58,120.2,226.8,546.58,Single-ply,SBD,M
Boys,75,2,Kyle Peed,Buda Hays,74.39,204.12,127.01,199.58,530.7,Single-ply,SBD,M
Boys,75,3,Albian Leyva,San Marcos,67.31,183.7,120.2,210.92,514.83,Single-ply,SBD,M
Boys,75,4,Trey Elkins,Austin Lake Travis,67.31,176.9,115.67,179.17,471.74,Single-ply,SBD,M
Boys,75,5,Joel Hinojosa,Seguin,73.48,174.63,111.13,181.44,467.2,Single-ply,SBD,M
Boys,75,6,Jacob Gonzales,Lockhart,71.85,167.83,81.65,213.19,462.66,Single-ply,SBD,M
Boys,75,7,Jared Cooper,Geronimo Navarro,69.13,156.49,95.25,181.44,433.18,Single-ply,SBD,M
Boys,75,8,Wesley Estrada-Lowe,Buda Hays,74.48,149.69,88.45,183.7,421.84,Single-ply,SBD,M
Boys,75,9,Marcus Barr,Del Valle,72.39,108.86,74.84,158.76,342.46,Single-ply,SBD,M
Boys,75,10,Wesley Peterson,Austin Westlake,68.95,129.27,81.65,124.74,335.66,Single-ply,SBD,M
Boys,82.5,1,Alex Rivas,Seguin,80.56,231.33,122.47,235.87,589.67,Single-ply,SBD,M
Boys,82.5,2,Prudencio Calderon,San Marcos,82.01,210.92,108.86,256.28,576.06,Single-ply,SBD,M
Boys,82.5,3,Jake Wright,Geronimo Navarro,79.2,199.58,113.4,204.12,517.1,Single-ply,SBD,M
Boys,82.5,4,Victor Martinez,San Marcos,81.83,170.1,129.27,183.7,483.08,Single-ply,SBD,M
Boys,82.5,5,Nick Cruz,Lockhart,78.2,151.95,97.52,190.51,439.98,Single-ply,SBD,M
Boys,82.5,6,Travis Atchley,Austin Lake Travis,77.38,161.03,88.45,183.7,433.18,Single-ply,SBD,M
Boys,82.5,7,Santiago Villegas,Austin Lake Travis,76.57,151.95,111.13,167.83,430.91,Single-ply,SBD,M
Boys,82.5,8,Demond Kitt,Del Valle,81.83,151.95,97.52,149.69,399.16,Single-ply,SBD,M
Boys,82.5,9,Tamorian Moore,Del Valle,77.11,124.74,92.99,149.69,367.41,Single-ply,SBD,M
Boys,82.5,10,Ronnie Garcia,Austin Bowie,80.29,131.54,92.99,142.88,367.41,Single-ply,SBD,M
Boys,82.5,11,Mario Soler,Del Valle,76.43,92.99,68.04,120.2,281.23,Single-ply,SBD,M
Boys,82.5,DQ,Ryan Leal,Buda Hays,79.56,,,,,Single-ply,SBD,M
Boys,90,1,Jared Leal,Geronimo Navarro,85.09,233.6,117.93,258.55,610.08,Single-ply,SBD,M
Boys,90,2,JC Castillo,Seguin,88.18,219.99,151.95,226.8,598.74,Single-ply,SBD,M
Boys,90,3,Joel Juarez,Lockhart,83.1,199.58,149.69,213.19,562.45,Single-ply,SBD,M
Boys,90,4,Ben Garza,Wimberley,87.54,201.85,140.61,199.58,542.04,Single-ply,SBD,M
Boys,90,5,Austin Naiser,Georgetown East View,83.82,185.97,140.61,190.51,517.1,Single-ply,SBD,M
Boys,90,6,De'Angelo Sutton,Seguin,88,188.24,97.52,213.19,498.95,Single-ply,SBD,M
Boys,90,7,Steele O'Connor,Austin Westlake,89.63,188.24,115.67,195.04,498.95,Single-ply,SBD,M
Boys,90,8,Luis Rodriguez,Geronimo Navarro,84.01,183.7,120.2,179.17,483.08,Single-ply,SBD,M
Boys,90,9,Marcus Ortiz,Del Valle,86.27,190.51,104.33,185.97,480.81,Single-ply,SBD,M
Boys,90,10,Garrett Bressette,Austin Lake Travis,88,183.7,104.33,190.51,478.54,Single-ply,SBD,M
Boys,90,11,Rene Velasquez,San Marcos,89.09,179.17,108.86,181.44,469.47,Single-ply,SBD,M
Boys,90,12,Bobby Magee,Austin Westlake,88.45,161.03,97.52,181.44,439.98,Single-ply,SBD,M
Boys,100,1,Reid Bacon,Austin Lake Travis,95.62,213.19,120.2,213.19,546.58,Single-ply,SBD,M
Boys,100,2,Brandon Salazar,Georgetown East View,92.99,190.51,147.42,195.04,532.97,Single-ply,SBD,M
Boys,100,3,Colton Barnett,Geronimo Navarro,96.25,188.24,117.93,204.12,510.29,Single-ply,SBD,M
Boys,100,4,Hunter York,Seguin,99.16,174.63,131.54,197.31,503.49,Single-ply,SBD,M
Boys,100,5,Julian Garcia,Austin Bowie,94.8,190.51,120.2,174.63,485.34,Single-ply,SBD,M
Boys,100,6,David Neil,Austin Westlake,93.08,172.37,99.79,188.24,460.4,Single-ply,SBD,M
Boys,100,7,Brayan Carrera,Del Valle,98.43,170.1,88.45,183.7,442.25,Single-ply,SBD,M
Boys,100,8,Joseluis Banda,Del Valle,99.52,142.88,122.47,170.1,435.45,Single-ply,SBD,M
Boys,100,9,Brian Ortiz,Del Valle,94.8,124.74,86.18,147.42,358.34,Single-ply,SBD,M
Boys,100,DQ,Xavier Napoliello,Austin Westlake,99.34,,,,,Single-ply,SBD,M
Boys,100,DQ,Bingham Woody,Austin Lake Travis,90.99,,,,,Single-ply,SBD,M
Boys,100,DQ,Jonathon Willett,Georgetown East View,91.9,206.38,136.08,,,Single-ply,SBD,M
Boys,110,1,Jose Hernandez,San Marcos,105.87,272.16,151.95,226.8,650.91,Single-ply,SBD,M
Boys,110,2,Ramsey Tijerina,San Marcos,108.32,224.53,129.27,215.46,569.26,Single-ply,SBD,M
Boys,110,3,Kade Langston,Austin Lake Travis,100.88,197.31,129.27,185.97,512.56,Single-ply,SBD,M
Boys,110,4,Logan Till,Lockhart,102.97,170.1,102.06,190.51,462.66,Single-ply,SBD,M
Boys,110,DQ,Jonathan Guerrero,Del Valle,101.33,,,,,Single-ply,SBD,M
Boys,110,DQ,Jeremy Rodriguez,Geronimo Navarro,108.77,294.84,,,,Single-ply,SBD,M
Boys,110,DQ,Lane Springs,Geronimo Navarro,107.95,283.5,167.83,,,Single-ply,SBD,M
Boys,125,1,Roman Ruiz,Lockhart,115.67,242.67,142.88,244.94,630.49,Single-ply,SBD,M
Boys,125,2,Marshall Crabb,Geronimo Navarro,118.57,229.06,142.88,238.14,610.08,Single-ply,SBD,M
Boys,125,3,Alan Velasquez,Georgetown East View,118.12,210.92,156.49,233.6,601.01,Single-ply,SBD,M
Boys,125,4,Allan Edelmon,Georgetown East View,124.47,226.8,142.88,219.99,589.67,Single-ply,SBD,M
Boys,125,5,Jaylon Knighten,Del Valle,119.29,192.78,111.13,188.24,492.15,Single-ply,SBD,M
Boys,125,6,Josh Baggett,Lockhart,110.5,154.22,81.65,163.29,399.16,Single-ply,SBD,M
Boys,125,DQ,Caleb Bishop,Lockhart,115.58,,,,,Single-ply,SBD,M
Boys,125,DQ,Seth Seale,Buda Hays,123.74,249.48,170.1,,,Single-ply,SBD,M
Boys,125,DQ,Luke Armstrong,Austin Westlake,111.95,147.42,,,,Single-ply,SBD,M
Boys,125,DQ,Louis Salamanca,Seguin,113.04,185.97,185.97,,,Single-ply,SBD,M
Boys,125+,1,Edward Camacho,Lockhart,137.17,256.28,147.42,233.6,637.3,Single-ply,SBD,M
Boys,125+,2,Tyler Howard,Geronimo Navarro,125.65,219.99,136.08,229.06,585.13,Single-ply,SBD,M
Boys,125+,3,Joe Colurciello,Lockhart,129.36,222.26,142.88,217.72,582.87,Single-ply,SBD,M
Boys,125+,4,Scale Igiehon,Del Valle,146.51,226.8,127.01,215.46,569.26,Single-ply,SBD,M
Boys,125+,5,Chase Patterson,Austin Lake Travis,126.19,208.65,106.59,215.46,530.7,Single-ply,SBD,M
Boys,125+,6,Abraham Torres,Austin Bowie,130,192.78,115.67,185.97,494.42,Single-ply,SBD,M
Boys,125+,7,Gray Griffin,Austin Westlake,138.25,190.51,115.67,161.03,467.2,Single-ply,SBD,M
Boys,125+,8,Zach Hostetter,Seguin,126.1,188.24,149.69,,337.93,Single-ply,SB,M
Boys,125+,DQ,David Rosales,Del Valle,129.82,183.7,106.59,,,Single-ply,SBD,M
Boys,125+,DQ,Nick Dela Rosa,San Marcos,149.69,204.12,90.72,,,Single-ply,SBD,M
