WeightClassKg,Division,Name,Equipment,Event,Sex,State,BodyweightKg,Squat1Kg,Squat2Kg,Squat3Kg,Best3SquatKg,Bench1Kg,Bench2Kg,Bench3Kg,Best3BenchKg,Deadlift1Kg,Deadlift2Kg,Deadlift3Kg,Best3DeadliftKg,TotalKg,Place
67.5,Open,Robert Warnke,Raw,SBD,M,IA,67.13,97.52,,108.86,108.86,97.52,104.33,,104.33,115.67,,124.74,124.74,337.93,2
67.5,Open,Kyle Schafroth,Raw,SBD,M,IA,65.77,142.88,158.76,,158.76,88.45,95.25,,95.25,183.7,195.04,,195.04,449.06,1
75,Open,Joshua Carrington,Raw,SBD,M,IA,73.03,149.69,,,149.69,124.74,,136.08,136.08,195.04,208.65,217.72,217.72,503.49,2
75,Open,Daniel Rosales,Raw,SBD,M,IL,73.94,192.78,199.58,206.38,206.38,145.15,154.22,,154.22,213.19,219.99,,219.99,580.6,1
75,Open,Alex Geneser,Raw,SBD,M,IA,74.84,138.35,147.42,,147.42,102.06,106.59,,106.59,170.1,183.7,199.58,199.58,453.59,3
82.5,Open,Adam Cox,Raw,SBD,M,IA,80.29,154.22,163.29,174.63,174.63,124.74,136.08,,136.08,163.29,174.63,185.97,185.97,496.68,1
82.5,Open,Vincent Lind,Wraps,SBD,M,IA,80.74,161.03,,174.63,174.63,97.52,106.59,,106.59,192.78,,217.72,217.72,498.95,1
90,Open,Weston Hirschauer,Raw,SBD,M,IA,89.81,158.76,172.37,181.44,181.44,111.13,120.2,127.01,127.01,176.9,188.24,195.04,195.04,503.49,2
90,Open,James Farn,Raw,SBD,M,IL,88.9,154.22,,,154.22,106.59,113.4,,113.4,188.24,195.04,,195.04,462.66,4
90,Open,Adam Ries,Raw,SBD,M,IA,89.36,181.44,192.78,204.12,204.12,,161.03,,161.03,188.24,192.78,204.12,204.12,569.26,1
90,Open,Austin Warren,Raw,SBD,M,IA,87.09,145.15,156.49,,156.49,108.86,117.93,,117.93,174.63,183.7,192.78,192.78,467.2,3
90,Open,Nate Gehrke,Wraps,SBD,M,IA,86.64,226.8,,249.48,249.48,124.74,136.08,140.61,140.61,226.8,244.94,,244.94,635.03,2
90,Open,Brandon Blanchard,Wraps,SBD,M,IA,89.36,229.06,,238.14,238.14,161.03,170.1,172.37,172.37,229.06,238.14,244.94,244.94,655.44,1
90,Open,Cody Hoferer,Raw,SBD,M,NE,88,,,,,,,,,,,,,,DQ
100,Open,Laurence Scott,Raw,SBD,M,IL,94.35,167.83,174.63,,174.63,136.08,,142.88,142.88,210.92,217.72,,217.72,535.24,3
100,Open,Jake Perkins,Raw,SBD,M,IA,99.34,195.04,208.65,226.8,226.8,165.56,176.9,183.7,183.7,226.8,,269.89,269.89,680.39,2
100,Open,Robert Cook,Raw,SBD,M,IA,98.88,256.28,,,256.28,156.49,163.29,,163.29,272.16,283.5,,283.5,703.07,1
110,Open,Travis Hansen,Raw,SBD,M,IA,103.87,,170.1,181.44,181.44,104.33,,,104.33,176.9,188.24,195.04,195.04,480.81,2
110,Open,Elliot Milakovich,Raw,SBD,M,IA,108.41,206.38,,,206.38,142.88,147.42,154.22,154.22,251.74,260.82,,260.82,621.42,1
110,Open,Adam Hutchison,Raw,B,M,IA,103.42,,,,,129.27,138.35,149.69,149.69,,,,,149.69,1
125,Open,Brian Lutter,Wraps,SBD,M,IA,122.02,251.74,,,251.74,183.7,192.78,,192.78,274.42,283.5,294.84,294.84,739.36,1
48,Teenage,Tyler Isley,Raw,SBD,M,IA,45.36,72.57,79.38,,79.38,31.75,36.29,,36.29,97.52,102.06,104.33,104.33,219.99,1
67.5,Juniors,TJ Devine,Raw,SBD,M,IA,66.68,165.56,,,165.56,104.33,,111.13,111.13,174.63,183.7,,183.7,460.4,1
67.5,Juniors,Michael Fisch,Raw,SBD,M,IA,66.68,138.35,149.69,,149.69,81.65,88.45,,88.45,176.9,192.78,,192.78,430.91,2
75,Juniors,Ramon Gonzalez,Wraps,SBD,M,IA,72.57,145.15,149.69,,149.69,97.52,,,97.52,147.42,156.49,,156.49,403.7,1
82.5,Juniors,Zach Lohner,Raw,SBD,M,IA,82.1,190.51,199.58,206.38,206.38,113.4,122.47,127.01,127.01,204.12,217.72,226.8,226.8,560.19,1
100,Juniors,Drew Armstrong,Raw,SBD,M,IA,99.79,151.95,161.03,170.1,170.1,,124.74,,124.74,183.7,201.85,210.92,210.92,505.76,1
100,Juniors,Dylan Heille,Raw,SBD,M,IA,97.98,81.65,92.99,102.06,102.06,122.47,133.81,,133.81,97.52,,106.59,106.59,342.46,2
118,Juniors,Luke Grzech,Raw,SD,M,IA,111.58,199.58,215.46,,215.46,,,,,204.12,219.99,229.06,229.06,444.52,1
125,Juniors,Eric Main,Raw,SBD,M,IA,123.38,229.06,247.21,,247.21,124.74,138.35,,138.35,138.35,224.53,242.67,242.67,628.23,1
75,Masters 60-64,Larry Squiers,Raw,SBD,M,IA,74.66,113.4,117.93,122.47,122.47,113.4,,,113.4,158.76,163.29,167.83,167.83,403.7,1
75,Masters 40-44,Toby Howell,Raw,SBD,M,IA,72.57,122.47,131.54,136.08,136.08,81.65,86.18,,86.18,165.56,174.63,181.44,181.44,403.7,1
82.5,Sub-Masters,Dan Williamson,Raw,SBD,M,IA,77.93,172.37,185.97,,185.97,122.47,131.54,140.61,140.61,192.78,210.92,226.8,226.8,553.38,1
82.5,Sub-Masters,Jeremy Smith,Raw,B,M,IA,81.01,,,,,167.83,,,167.83,,,,,167.83,1
90,Masters 55-59,Mike Hefner,Raw,SBD,M,IA,84.37,158.76,170.1,176.9,176.9,108.86,113.4,,113.4,161.03,167.83,,167.83,458.13,1
90,Masters 60-64,Les Keith,Raw,SBD,M,IA,88.27,,156.49,,156.49,111.13,120.2,127.01,127.01,183.7,192.78,,192.78,476.27,1
90,Sub-Masters,David Gossard,Raw,SBD,M,IA,83.19,129.27,142.88,158.76,158.76,,,,,142.88,156.49,174.63,174.63,,DQ
90,Sub-Masters,David Gossard,Raw,D,M,IA,83.19,,,,,,,,,142.88,156.49,174.63,174.63,174.63,1
100,Sub-Masters,Patrick Sadlacek,Raw,SBD,M,IA,98.34,151.95,170.1,,170.1,104.33,108.86,111.13,111.13,165.56,174.63,183.7,183.7,464.93,2
100,Masters 45-49,Clint Cavanah,Raw,SBD,M,IA,99.43,167.83,174.63,183.7,183.7,102.06,106.59,,106.59,174.63,183.7,195.04,195.04,485.34,1
100,Masters 40-44,Trahvae Freraire,Raw,SBD,M,IA,91.26,170.1,181.44,195.04,195.04,111.13,120.2,,120.2,172.37,188.24,204.12,204.12,519.36,1
100,Masters 50-54,Ramon Arechavaleta,Raw,SBD,M,IA,95.8,179.17,192.78,199.58,199.58,142.88,149.69,,149.69,192.78,206.38,,206.38,555.65,1
100,Masters 45-49,Dean Bridges,Wraps,SBD,M,IA,99.06,192.78,201.85,,201.85,129.27,136.08,142.88,142.88,206.38,,,206.38,551.11,1
100,Sub-Masters,Seth Ramaeker,Raw,SBD,M,IA,97.98,192.78,204.12,213.19,213.19,142.88,151.95,158.76,158.76,217.72,235.87,249.48,249.48,621.42,1
100,Masters 50-54,Joe Larscheid,Raw,SBD,M,IA,91.44,142.88,,149.69,149.69,124.74,129.27,133.81,133.81,174.63,188.24,201.85,201.85,485.34,2
100,Grand-Masters,Phil Poppino,Raw,B,M,IA,98.88,,,,,142.88,,149.69,149.69,,,,,149.69,1
110,Masters 50-54,Don Modlin,Raw,SBD,M,IA,103.24,158.76,174.63,192.78,192.78,117.93,124.74,,124.74,158.76,174.63,188.24,188.24,505.76,1
110,Masters 40-44,Brian Moreland,Raw,SBD,M,IA,107.23,,183.7,204.12,204.12,124.74,138.35,145.15,145.15,215.46,,229.06,229.06,578.33,1
110,Masters 40-44,Brandon Cass,Wraps,SBD,M,MO,105.89,,,,,,,,,,,,,,DQ
125,Sub-Masters,Bryce Oakes,Raw,SBD,M,IA,122.02,199.58,219.99,229.06,229.06,165.56,,,165.56,242.67,265.35,,265.35,659.98,1
118,Sub-Masters,Larry Clark Jr,Raw,SBD,M,IA,111.58,113.4,124.74,142.88,142.88,102.06,111.13,124.74,124.74,158.76,174.63,188.24,188.24,455.86,2
125,Masters 45-49,Dave Walker,Raw,SBD,M,IA,123.56,210.92,219.99,,219.99,176.9,,,176.9,204.12,217.72,,217.72,614.62,1
140,Masters 55-59,Wayne Hammes,Raw,SBD,M,IA,132.18,,231.33,244.94,244.94,174.63,183.7,190.51,190.51,256.28,272.16,281.23,281.23,716.68,1
140+,Masters 50-54,Beau Moore,Raw,SBD,M,IA,175.72,307.54,330.22,,330.22,227.48,,,227.48,317.51,,,317.51,874.98,1
56,Open,Emily Deugen,Raw,B,F,IA,52.98,,,,,38.56,43.09,47.63,47.63,,,,,47.63,1
60,Open,Courtney Markley,Raw,SBD,F,IA,58.88,106.59,111.13,117.93,117.93,47.63,49.9,52.16,52.16,129.27,138.35,145.15,145.15,315.25,1
67.5,Open,Abbie Clark,Raw,SBD,F,IA,67.22,102.06,113.4,,113.4,52.16,58.97,,58.97,120.2,138.35,147.42,147.42,319.78,2
67.5,Open,Amy Bohl,Raw,SBD,F,IA,63.14,111.13,,120.2,120.2,61.23,65.77,68.04,68.04,122.47,131.54,142.88,142.88,331.12,1
67.5,Open,Athena Waldstein,Wraps,SBD,F,IA,67.31,151.95,161.03,172.37,172.37,77.11,81.65,88.45,88.45,163.29,170.1,176.9,176.9,437.72,1
75,Open,Rochelle Overton,Raw,SBD,F,IA,74.3,58.97,63.5,68.04,68.04,29.48,34.02,36.29,36.29,97.52,106.59,111.13,111.13,215.46,2
75,Open,Mandy Lewis,Raw,SBD,F,IA,74.57,117.93,124.74,131.54,131.54,61.23,,68.04,68.04,145.15,154.22,161.03,161.03,360.61,1
82.5,Open,Lexington Hills,Raw,SBD,F,IA,78.2,88.45,92.99,97.52,97.52,49.9,54.43,,54.43,95.25,102.06,113.4,113.4,265.35,2
82.5,Open,Cynthia Hansen,Raw,SBD,F,IA,81.47,133.81,140.61,149.69,149.69,70.31,74.84,,74.84,165.56,179.17,183.7,183.7,408.23,1
90,Open,Tara Latham,Raw,SBD,F,IA,85.82,124.74,136.08,147.42,147.42,65.77,70.31,74.84,74.84,142.88,154.22,,154.22,376.48,2
90,Open,Cinda Dixon,Raw,SBD,F,IA,89.72,140.61,156.49,170.1,170.1,68.04,77.11,86.18,86.18,136.08,156.49,170.1,170.1,426.38,1
90+,Open,Katie Buck,Raw,SBD,F,IA,108.68,83.91,88.45,92.99,92.99,,65.77,70.31,70.31,83.91,92.99,104.33,104.33,267.62,2
90+,Open,Janelle Hartwig,Raw,SBD,F,IA,127.01,156.49,172.37,183.7,183.7,,99.79,,99.79,183.7,190.51,204.12,204.12,487.61,1
75,Teenage,Julia Cavanah,Raw,SBD,F,IA,73.03,79.38,,86.18,86.18,,45.36,49.9,49.9,79.38,86.18,92.99,92.99,229.06,2
75,Teenage,Haley Hudson,Raw,SBD,F,IA,72.57,83.91,88.45,95.25,95.25,47.63,52.16,56.7,56.7,99.79,108.86,117.93,117.93,269.89,1
90+,Juniors,Jenna Smith,Raw,SBD,F,IA,107.95,95.25,104.33,,104.33,47.63,52.16,56.7,56.7,104.33,113.4,120.2,120.2,281.23,1
