Name,State,Sex,Division,BodyweightKg,WeightClassKg,Bench1Kg,Bench2Kg,Bench3Kg,Bench4Kg,Best3BenchKg,TotalKg,Place,Event,Equipment
Rashon Pickett,NC,M,Youth,39.01,40,20.41,27.22,36.29,40.82,36.29,36.29,1,B,Raw
Cheri Grant,NC,F,Master 45-49,55.79,56,38.56,40.82,43.09,45.36,43.09,43.09,1,B,Raw
Kelly Wescott,NC,F,Open,59.51,60,65.77,70.31,72.57,74.84,72.57,72.57,1,B,Raw
Melvin Perry,NC,M,Open,59.87,60,113.4,129.27,136.08,,136.08,136.08,1,B,Raw
John Hoover,NC,M,Master 55-59,66.22,67.5,74.84,83.91,,,83.91,83.91,1,B,Raw
Dave Wilson,VA,M,Master 45-49,67.13,67.5,,,,,,,DQ,B,Raw
Janet Whetstone,NC,F,Master 40-44,72.67,75,52.16,54.43,56.7,,56.7,56.7,1,B,Raw
Bobby Hoover,NC,M,Junior 20-24,74.39,75,102.06,108.86,117.93,,117.93,117.93,1,B,Raw
Fred Wescott,NC,M,Master 50-54,73.48,75,120.2,124.74,129.27,131.54,129.27,129.27,1,B,Raw
Rick Fecteau,NC,M,Master 55-59,69.4,75,83.91,86.18,88.45,,88.45,88.45,1,B,Raw
Mike Veilleux,NH,M,Open,73.94,75,102.06,108.86,115.67,,115.67,115.67,3,B,Raw
Pete Smith,SC,M,Open,74.84,75,136.08,142.88,145.15,,145.15,145.15,2,B,Raw
John Brown,NC,M,Open,73.94,75,136.08,149.69,154.22,,154.22,154.22,1,B,Raw
Donnly Nelson,NC,M,Junior 20-24,82.1,82.5,122.47,127.01,,,127.01,127.01,2,B,Raw
Mark Franklin,NC,M,Junior 20-24,75.75,82.5,124.74,136.08,,,136.08,136.08,1,B,Raw
Will Lynch,NC,M,Open,81.65,82.5,206.38,215.46,219.99,,219.99,219.99,1,B,Raw
Michael Mason,NC,M,Submaster 35-39,82.1,82.5,,,,,,,DQ,B,Raw
Anthony Bannerman,NC,M,Submaster 35-39,81.19,82.5,165.56,170.1,174.63,,174.63,174.63,1,B,Raw
Karen Stone,NC,F,Submaster 35-39,82.55,90,77.11,81.65,86.18,,86.18,86.18,1,B,Raw
Curtis Smith,SC,M,Master 40-44,88.45,90,124.74,,136.08,,136.08,136.08,1,B,Raw
Edward Thayer,NC,M,Master 50-54,89.27,90,113.4,122.47,131.54,,131.54,131.54,2,B,Raw
Larry Jobe,NC,M,Master 50-54,88,90,124.74,133.81,,,133.81,133.81,1,B,Raw
Mitch Summerfield,NC,M,Open,88,90,129.27,136.08,,,136.08,136.08,3,B,Raw
Theophilus Alston,NC,M,Open,89.81,90,,142.88,,,142.88,142.88,2,B,Raw
Steve Paolini,MA,M,Open,88,90,99.79,106.59,,,106.59,106.59,6,B,Raw
Mike Hodge,MD,M,Law/Fire/Military,88.81,90,176.9,185.97,,,185.97,185.97,1,B,Raw
Andrew Smith #1,NC,M,Submaster 35-39,84.28,90,92.99,102.06,108.86,,108.86,108.86,5,B,Raw
Jordan Peachey,VA,M,Teen 18-19,84.37,90,117.93,,,,117.93,117.93,4,B,Raw
Dennis Campbell,NC,M,Master 45-49,95.53,100,142.88,147.42,,,147.42,147.42,2,B,Raw
Jim Hansen,NC,M,Master 45-49,94.62,100,133.81,142.88,149.69,,149.69,149.69,1,B,Raw
Dave Lhota,PA,M,Master 50-54,97.07,100,158.76,165.56,167.83,,167.83,167.83,1,B,Raw
Ronald Avery,NC,M,Master 60-64,99.34,100,102.06,108.86,117.93,,117.93,117.93,1,B,Raw
Ray Berry,NC,M,Master 40-44,94.8,100,136.08,145.15,154.22,,154.22,154.22,2,B,Raw
Carleton Pickett,NC,M,Submaster 35-39,94.8,100,165.56,183.7,188.24,,188.24,188.24,1,B,Raw
James Barber,NC,M,Teen 18-19,97.98,100,61.23,65.77,70.31,,70.31,70.31,1,B,Raw
Jeff Wilson,NC,M,Junior 20-24,98.88,100,102.06,124.74,129.27,,129.27,129.27,2,B,Raw
Luke Starr,NC,M,Junior 20-24,99.34,100,124.74,131.54,136.08,,136.08,136.08,1,B,Raw
Yat Leung,NC,M,Junior 20-24,109.32,110,113.4,,136.08,,136.08,136.08,1,B,Raw
Lynn Corbin,NC,M,Master 45-49,107.96,110,151.95,158.76,165.56,,165.56,165.56,2,B,Raw
Robert Cameron,NC,M,Master 45-49,109.77,110,158.76,172.37,183.7,,183.7,183.7,1,B,Raw
Donnie Simpson,NC,M,Master 50-54,108.86,110,124.74,131.54,,,131.54,131.54,1,B,Raw
Steven Harris,NC,M,Master 40-44,109.77,110,142.88,165.56,174.63,,174.63,174.63,1,B,Raw
Scott Deuel,NC,M,Submaster 35-39,104.78,110,142.88,145.15,149.69,,149.69,149.69,1,B,Raw
Jason Spruill,NC,M,Junior 20-24,118.84,125,158.76,,,,158.76,158.76,1,B,Raw
Joe Hilliard,NC,M,Master 50-54,123.83,125,204.12,208.65,213.19,,213.19,213.19,1,B,Raw
Donald Owens,NC,M,Open,112.49,125,158.76,174.63,183.7,,183.7,183.7,1,B,Raw
Ronnie Biggs,NC,M,Master 40-44,123.83,125,165.56,172.37,,,172.37,172.37,2,B,Raw
Carl Elliott,NC,M,Open,139.71,140,,,,,,,DQ,B,Raw
Maurice Washington,GA,M,Open,139.71,140,,,,,,,DQ,B,Raw
Herman Canada,NC,M,Open,122.02,125,195.04,204.12,,,204.12,204.12,1,B,Raw
Paul Walsh,NC,M,Teen 18-19,149.69,140+,165.56,,,,165.56,165.56,1,B,Raw
